subject_id,insurance,first_admit_age,average_wait_time_admit_to_discharge
500,Private,60,30350
540,Private,52,36219
680,Medicare,77,4860
1045,Private,39,8701
1093,Private,51,6770
1214,Medicare,68,10425
1322,Medicare,56,6810
1372,Private,60,2109
1470,Private,39,44674
1508,Medicare,51,11501
1771,Private,56,16067
1786,Medicare,44,24159
2114,Medicare,69,28359
2184,Medicare,43,5304
2403,Medicare,80,85044
2406,Medicare,43,9433
2759,Medicare,82,70332.5
2978,Private,58,5494
2989,Medicare,56,3582
3024,Medicare,75,64066
3092,Medicare,73,28364
3172,Private,54,26332
3273,Medicare,48,16807
3318,Private,46,25043
3424,Medicare,40,19000
3435,Private,56,6832
3446,Private,30,2447
3632,Medicare,74,4506
3684,Private,51,34327
3718,Medicare,70,8675
3939,Private,64,32639
3995,Private,74,16042
4002,Private,60,18788
4109,Medicare,66,13000
4126,Private,46,3931
4166,Private,53,16013
4184,Private,56,2534
4317,Medicare,35,28528
4344,Private,63,18964
4405,Medicare,50,8595
4512,Private,43,7299
4668,Medicare,36,27571
4847,Private,52,32734
5047,Medicare,70,11239
5090,Private,50,54255
5354,Private,39,13330
5385,Private,36,10830
5575,Medicare,51,8060
5586,Private,59,8610
5869,Private,43,45523
5900,Private,61,81289
6128,Medicare,74,14430
6210,Private,46,5030
6313,Private,45,32745
6366,Medicare,56,21692
6381,Private,46,69338
6601,Private,53,43390
6657,Medicare,51,15630
6700,Medicare,33,14079
6876,Private,42,13904
6953,Medicare,47,8101.2
7152,Medicare,78,26170
7242,Private,67,21248
7255,Medicare,69,13061
7494,Medicare,75,26035
7512,Private,52,3115
7654,Private,53,3368
7676,Medicare,45,12654
7757,Private,58,61450
7766,Private,38,35446
7784,Medicare,70,18593
8087,Private,75,4550
8112,Medicare,71,28654
8113,Medicare,66,11516
8244,Private,64,11690
8291,Private,40,17343
8331,Private,63,15361
8408,Medicare,83,14366
8525,Medicare,77,31308
8655,Medicare,49,22960
8656,Medicare,84,8511
8663,Private,54,12491
8786,Private,43,1040
9012,Medicare,45,4454
9021,Private,55,63102
9160,Private,54,13939
9248,Medicare,80,19894
9274,Private,64,8238
9283,Private,54,12165
9313,Medicare,55,13775
9407,Private,62,19726
9611,Private,65,8473
9816,Medicare,70,29838
9913,Private,60,4206
10060,Medicare,75,25104
10400,Medicare,71,12304
10442,Private,53,37827
10563,Private,62,46804
10615,Medicare,84,38792
10618,Private,46,34136
10794,Private,58,25823
10849,Private,66,8165
10939,Private,52,17619
11382,Medicare,79,14528.5
11404,Private,44,40124
11464,Medicare,80,99661
11476,Medicare,67,13471
11993,Medicare,69,13957
12013,Private,45,9727
12170,Medicare,73,80900
12312,Private,62,12581
12720,Medicare,46,20156
12954,Private,60,40095
13305,Medicare,56,8221
13378,Private,75,5572
13445,Medicare,75,11874
13530,Private,51,25361
13627,Medicare,41,5696
13666,Private,47,38830
13794,Medicare,67,6058
13809,Medicare,46,3555
13855,Medicare,60,7714
13927,Medicare,43,2059
14021,Private,55,9223
14073,Medicare,68,4249
14087,Private,45,10596
14099,Medicare,51,3294
14380,Private,60,13633
14558,Private,50,25836
14737,Private,61,4970
15012,Medicare,72,14037
15116,Private,64,34506
15228,Medicare,78,9941
15312,Private,56,34740
15414,Private,46,9439
15590,Medicare,55,26598
15607,Medicare,53,25722
15704,Medicare,65,51587
15728,Private,50,38546
15877,Medicare,77,53589
15908,Private,43,3806
15931,Private,47,5733
15975,Private,37,25560
16082,Private,54,22396
16342,Private,65,3620
16345,Private,52,8599
16423,Private,37,11213
16468,Medicare,48,27112
16708,Private,46,6654
16727,Medicare,60,38381
16813,Medicare,43,7579
16864,Private,34,2256
16903,Private,56,22303
16981,Private,50,13095
17130,Private,56,1891
17206,Private,35,13460
17278,Private,44,20160
17285,Medicare,84,18335
17290,Private,60,7166
17506,Private,71,24392
17655,Medicare,62,21014
17785,Medicare,66,16985
17786,Private,56,27492
17801,Medicare,72,9289
17875,Private,48,34355
17876,Private,48,4306
17901,Medicare,52,3759
18182,Private,52,8956
18468,Private,66,58620
18489,Medicare,61,18679
18526,Private,56,38467
18717,Private,56,20885
19087,Medicare,74,21936
19236,Medicare,54,18230
19239,Medicare,77,8556
19263,Medicare,43,14113
19602,Private,61,4060
19771,Private,33,3045
19986,Medicare,76,12045
19992,Medicare,50,9030
20075,Private,50,4159
20503,Private,50,6876
20531,Private,52,26293
20585,Medicare,63,25663
20689,Private,53,36561
20969,Medicare,73,20552
21040,Medicare,71,24054
21050,Medicare,68,20730
21091,Medicare,73,15189
21168,Private,59,6733
21215,Private,41,7825
21354,Medicare,79,13752
21698,Private,44,3931
21888,Private,42,9317
21914,Private,55,9784
22113,Medicare,77,11789
22318,Private,68,14550
22351,Medicare,60,41306
22417,Medicare,69,16305
22420,Private,51,16419
22840,Private,63,7067
22921,Medicare,60,4287
22930,Private,49,13297.5
23252,Private,64,36935
23257,Medicare,77,4254
23329,Private,44,13515
23428,Private,41,8123
23477,Private,49,3897
23632,Private,44,11528
23738,Medicare,69,25243
23743,Private,58,8820
23745,Private,71,36801
23895,Medicare,62,6529.5
23899,Private,61,16921
23940,Private,57,14517
24086,Medicare,81,12055
24098,Private,33,2622
24100,Private,47,21105
24197,Private,39,4161
24271,Medicare,51,9880
24519,Private,60,26318
24541,Medicare,67,6047
24682,Private,46,10915
24697,Private,45,15476
24814,Private,58,19835
24899,Private,58,5277
25006,Medicare,62,6847
25122,Private,55,25507
25144,Private,53,20262
25345,Private,42,7103
25350,Medicare,65,5599
25384,Private,53,5140
25419,Private,48,10121
25555,Private,23,15562
25635,Medicare,61,25713
25655,Medicare,45,3939
25665,Private,63,8215
25862,Private,55,71906
26016,Medicare,40,6468
26036,Medicare,55,4510
26114,Medicare,41,3870
26133,Medicare,58,35412
26151,Medicare,62,12275
26192,Private,78,97300
26267,Medicare,46,10472
26283,Medicare,85,59799
26433,Medicare,67,25314
26480,Medicare,56,29479
26535,Private,42,7971
26597,Medicare,81,8139
26727,Medicare,75,19887
26776,Medicare,40,6967
26785,Private,60,19354
27112,Medicare,53,16882
27123,Medicare,72,11977
27220,Medicare,85,9322
27280,Private,53,32009
27872,Private,43,2862.5
28086,Medicare,43,10889
28187,Private,54,56735
28240,Medicare,39,7626
28450,Medicare,65,10216
28594,Private,26,3376
28626,Private,41,4839
28669,Private,58,35710
28676,Private,60,23560
28726,Medicare,69,17001
28794,Private,50,16610
28797,Medicare,51,14187
28925,Medicare,67,14367
29003,Private,66,19719
29088,Private,59,8495
29142,Private,38,43084
29315,Private,57,12045
29360,Private,63,5552
29414,Medicare,41,24846
29465,Private,43,12174
29502,Medicare,55,7412
29702,Medicare,52,5082
29999,Private,62,9599
30142,Private,63,71907
30190,Private,49,13055
30322,Medicare,66,14603
30334,Medicare,69,34183
30432,Medicare,81,34048
30481,Medicare,48,6667
30696,Medicare,83,23092
30779,Private,64,6519
30917,Medicare,88,6180
31260,Medicare,65,25673
31264,Private,62,30207
31273,Private,49,16014
31276,Medicare,53,16595
31425,Private,58,12560
31434,Private,59,11550
31500,Medicare,48,4023
31626,Medicare,67,15257
32180,Medicare,63,6494
32192,Medicare,54,5686.5
32194,Private,37,4258
32288,Medicare,79,20031
32441,Private,33,5596
32485,Private,45,3925
32489,Private,44,5781
32582,Private,60,11327
32774,Medicare,53,5086
40461,Private,50,41801
40493,Private,57,19755
40496,Medicare,48,6600
40761,Private,49,6507
40866,Medicare,59,19875
41030,Private,47,6838
41125,Medicare,83,23653
41336,Private,24,3889
41385,Private,65,6137
41409,Private,53,9440
41526,Private,62,24452
41687,Private,62,18022
41716,Private,52,6850
42055,Medicare,67,4246
42091,Private,60,6186
42124,Medicare,56,25417
42189,Private,60,17140
42292,Private,64,4309
42519,Medicare,53,7042
42727,Private,49,1504
43107,Private,62,7295
44002,Medicare,44,12047
44065,Private,66,26171
44190,Medicare,49,34524
44566,Medicare,67,20148
44666,Private,64,8540
44715,Private,55,9671
44751,Medicare,65,5807
45316,Private,57,8181
45380,Medicare,73,25728
45419,Medicare,79,39009
45492,Private,50,13714
45576,Private,27,38515
45657,Medicare,68,15621
46187,Medicare,51,5480
46586,Private,55,12659
46672,Private,58,6660
46744,Medicare,67,17176
46801,Medicare,78,9547
47157,Private,63,10344
47305,Medicare,54,25448
47448,Private,54,18906
47875,Private,54,15145
48028,Private,48,26430
48481,Medicare,45,15696
48925,Medicare,69,29386
49141,Private,39,26608
49380,Private,70,6388
50170,Private,47,5401
50212,Private,45,8788
50252,Private,61,15441
50370,Medicare,50,3656
50480,Medicare,50,15102
50627,Private,42,5959
51039,Private,52,27281
51076,Private,59,4829
51795,Private,33,21001
51805,Private,64,24222
51839,Private,69,26298
51864,Medicare,68,18722
52136,Medicare,68,11154
52188,Medicare,76,11775
52389,Private,63,7501
52853,Medicare,56,3922
53247,Medicare,50,24298
53763,Medicare,70,14866
53944,Private,51,48745
53974,Private,48,14179
54320,Private,56,1481
54655,Medicare,45,7880
55001,Private,44,23672
55005,Private,60,15581
55036,Private,65,18121
55051,Private,59,28461
55246,Private,75,9538
55265,Private,64,51311
55413,Medicare,45,7159
55697,Medicare,55,919
55931,Private,22,5102
55953,Medicare,70,48990
56321,Private,45,7568
56446,Private,47,18029
56460,Medicare,64,24515
57492,Medicare,69,1276
57562,Medicare,76,17407
57741,Medicare,66,35178
57872,Medicare,42,11721
58213,Private,39,24669
58500,Medicare,66,11806
58659,Medicare,76,23498
58811,Private,44,7174
58848,Medicare,72,13393
58903,Medicare,45,5076
58968,Private,41,4110
59373,Private,33,53016
59657,Medicare,63,31392
59675,Medicare,68,6613
60523,Medicare,66,18112
60554,Medicare,65,6912
60624,Medicare,79,11281
60726,Medicare,69,13729
60925,Private,58,32578
60929,Private,58,7466
60947,Medicare,55,57845
60985,Private,59,9952
61516,Private,61,11979
61588,Private,60,9554
61676,Private,47,13395
61809,Medicare,35,2976.5
62343,Medicare,55,14190
62642,Private,30,6908
63017,Private,58,14428
63043,Medicare,68,17171
63112,Private,26,1564
63360,Private,71,8352
63409,Medicare,66,33408
63471,Medicare,56,20812
63496,Private,48,73901
64195,Private,60,2122
64295,Private,47,15465
64350,Private,52,15398
64655,Medicare,85,16336
64687,Medicare,67,11469
64772,Private,54,5363
64911,Private,57,12710
65310,Private,35,17099
65925,Medicare,70,43870
65951,Private,34,18729
66499,Medicare,61,5177.5
66580,Private,58,10688
66664,Private,39,8326
66688,Private,62,10507
67529,Medicare,65,28680
68024,Medicare,73,9886
68083,Private,59,3723
68175,Private,54,22585
68425,Private,58,13017
68435,Medicare,66,14952
68621,Private,62,3954
68857,Private,61,21381
68989,Private,52,10386
69257,Medicare,76,16976
69268,Private,47,9462
69395,Medicare,43,13875
69569,Private,24,3591
69649,Private,46,22470
69701,Private,64,8443
70023,Medicare,66,6075
70084,Private,67,8593
70142,Private,50,33858
70340,Medicare,51,8746
70764,Medicare,72,16599
70796,Medicare,55,6690
70858,Medicare,57,4055
72036,Private,44,14885
72224,Medicare,70,22015
73316,Medicare,57,19503
73444,Medicare,83,40195
73578,Private,64,23438
74185,Medicare,68,26183
74278,Private,51,2412
74502,Medicare,77,11901
74586,Private,53,14670
74693,Private,54,25533
74764,Medicare,64,14499
74835,Medicare,37,43667
75039,Private,48,42789
75517,Private,59,11234
75798,Private,48,30523
75828,Private,54,16864
76541,Private,46,50430
76580,Medicare,47,4249.5
76803,Medicare,70,7714
76826,Private,48,5297
77013,Private,40,42410
77138,Medicare,40,18721
77220,Private,56,25444
77361,Private,56,21133
77597,Private,40,38359
77794,Medicare,76,15880
77850,Medicare,35,3220.6666666666665
78318,Private,64,3722
78373,Medicare,79,21195
78920,Medicare,63,13850
79977,Medicare,40,1427
80030,Private,56,59912
80112,Medicare,71,15627
80218,Medicare,69,18758
80260,Private,44,7416
80361,Private,59,13477
80442,Private,56,5123
80534,Medicare,57,9719
80861,Private,50,16545
80935,Private,62,4267
81010,Private,63,11203
81235,Private,57,21822
81685,Medicare,53,26035
81850,Medicare,42,12138.5
81938,Private,52,12501
82157,Private,62,23592
83169,Private,62,8636
83514,Medicare,47,6972
85039,Medicare,55,109411
85095,Medicare,74,22258
85552,Private,46,20334
85572,Medicare,54,13567
86239,Private,70,17365
86254,Private,45,12748
86485,Private,48,18477
86621,Medicare,48,9387
86723,Medicare,35,5419
87172,Medicare,70,7406
87484,Private,78,12316
87518,Private,41,11006
87541,Private,43,9053
87675,Medicare,64,130972
87869,Medicare,42,40748.5
87907,Private,51,10510
88095,Medicare,43,25354
88264,Medicare,75,13296
88438,Private,51,22992
88471,Private,54,16802
88573,Private,57,13047
88801,Private,61,12138
89309,Private,41,4547
89818,Medicare,71,26050
90005,Medicare,28,5276
90066,Medicare,80,24337
90213,Private,56,5634
90418,Private,38,22496
90729,Medicare,63,18594
90848,Medicare,74,8685
91001,Private,56,18603
91092,Medicare,45,3034
91097,Private,67,13982
91946,Medicare,70,39490
93203,Medicare,38,9555.5
93325,Private,57,18113
93486,Private,27,885
93640,Medicare,69,53340
94319,Private,62,15902
94404,Private,40,2037
94821,Medicare,48,14209
94889,Private,52,57972
95457,Private,54,21774
95816,Private,43,18783
95893,Private,67,11648
96703,Medicare,51,6933
96913,Private,57,29673
97407,Private,21,3251
97488,Medicare,67,11549
97781,Private,41,5127
97783,Medicare,69,23955
97850,Medicare,73,10725
97978,Private,45,3150
98070,Private,51,11037
98196,Medicare,74,11323
98416,Medicare,48,2961
98813,Medicare,65,14317
99082,Medicare,71,18224
99100,Private,21,4757
99205,Private,48,18559
99424,Medicare,73,3227
99790,Medicare,65,9809
99802,Medicare,70,8570
99849,Medicare,55,4204
