subject_id,insurance,first_admit_age,average_wait_time_admit_to_discharge
85,Medicare,77,6995
165,Medicare,86,2898
246,Medicare,69,9105
402,Private,50,9720
422,Private,58,21152
558,Private,51,5226
735,Medicare,60,24592
751,Medicare,56,18482
796,Medicare,80,10019
798,Private,68,28394
835,Medicare,82,5271
852,Private,52,2782
1066,Medicare,65,5538
1077,Private,61,13193
1084,Private,59,4110
1104,Private,39,15616.666666666668
1286,Private,70,2918
1354,Medicare,56,10047
1371,Medicare,72,34529
1448,Medicare,75,788
1455,Medicare,87,8606
1469,Medicare,50,9171
1552,Medicare,60,2959
1578,Medicare,79,14481.5
1616,Medicare,49,7050
1679,Medicare,44,31310
1709,Medicare,57,4194
1788,Medicare,76,26570
1860,Medicare,71,35610
1988,Private,56,19128.25
2015,Private,47,17123.5
2207,Medicare,66,40501
2298,Medicare,69,9806
2304,Private,65,5977
2341,Private,63,48499
2434,Medicare,54,15374
2442,Private,52,9987
2744,Private,47,5187
2825,Private,37,1350
2906,Private,59,27221
3070,Medicare,71,8274
3267,Medicare,53,17226.333333333332
3283,Medicare,77,6285
3379,Medicare,32,4872
3703,Medicare,87,7438
3707,Medicare,76,18827
3722,Medicare,57,16993
3778,Medicare,71,14432
3790,Medicare,65,17040
3792,Medicare,59,4842
3981,Private,51,9074
4292,Medicare,71,7573.5
4357,Medicare,56,3508
4390,Medicare,64,11328
4392,Medicare,48,8598.3333333333339
4410,Medicare,302,7385
4600,Medicare,72,8147
4668,Medicare,36,27571
4676,Private,74,17748
4696,Medicare,72,12891
4787,Medicare,79,6176.8
4920,Medicare,71,6045
4951,Medicare,68,23948
5058,Medicare,56,5666.333333333333
5124,Private,63,10225
5166,Medicare,66,1730
5246,Medicare,74,40440.5
5348,Medicare,62,8885
5491,Private,77,22968.5
5679,Medicare,78,11711
5710,Private,62,4605
5752,Medicare,55,5778
5772,Medicare,62,26977.333333333332
5841,Medicare,76,10634
5852,Medicare,81,18699
6063,Medicare,72,14736
6125,Private,53,16093
6176,Medicare,69,19245
6178,Medicare,60,9926
6379,Private,67,3300
6490,Private,45,14034
6594,Private,48,30917
6627,Private,67,10300
6692,Private,54,6470
6718,Medicare,41,91364
6873,Private,58,83209
6921,Private,56,19335
7003,Medicare,66,8925
7107,Medicare,83,12894
7133,Private,42,20455
7229,Private,35,55505
7569,Medicare,64,9309
7614,Medicare,83,17270
7618,Private,60,6546
7708,Private,47,24510
7839,Medicare,58,7443
7972,Medicare,82,4139
7979,Medicare,43,12807.5
8081,Medicare,73,8440
8227,Medicare,74,27885
8273,Medicare,66,10244.5
8281,Private,59,27885
8388,Medicare,71,8254
8426,Medicare,78,15181.5
8492,Medicare,79,21210.666666666668
8917,Private,63,38708
9002,Medicare,73,286
9030,Medicare,60,7597
9044,Private,64,60780
9054,Medicare,72,847
9128,Medicare,53,8588
9144,Medicare,70,7687
9271,Medicare,59,4557
9385,Medicare,49,6803
9498,Medicare,86,20639
9518,Medicare,40,6747.3333333333339
9564,Medicare,66,6125
9622,Medicare,53,5852
9644,Medicare,71,33988
9712,Private,57,6805
9754,Private,63,51731
9866,Medicare,66,7790
9939,Private,62,10199
9942,Medicare,71,4124
9969,Private,66,8989
9973,Private,58,8399
10124,Medicare,84,41671
10317,Private,54,4016
10600,Medicare,68,12714
10678,Private,58,5917
10712,Private,35,2895
10792,Medicare,83,28918
10852,Medicare,62,4833
10943,Private,52,3403
11098,Medicare,60,8946
11123,Medicare,84,12126.5
11236,Medicare,82,16777
11334,Private,56,42100
11346,Private,59,2221
11359,Medicare,43,15134
11395,Medicare,63,67744
11446,Medicare,60,33491
11588,Medicare,68,10218
11711,Medicare,69,4815
11795,Private,67,79544
11862,Medicare,74,24309.5
12008,Medicare,61,21335
12065,Private,52,14602.5
12077,Private,54,11220
12132,Medicare,48,7322
12261,Private,55,9466
12312,Private,62,12581
12360,Medicare,77,17445
12373,Medicare,41,7926
12572,Medicare,33,9839
12601,Private,42,2525
12805,Medicare,34,126028
12811,Medicare,69,24688
12815,Private,61,21224
12902,Private,45,7031
13164,Private,55,5746
13306,Private,50,11207
13401,Private,63,7396
13486,Medicare,82,5075
13600,Medicare,83,13163
13603,Medicare,68,33850
13616,Medicare,69,8903
13699,Medicare,83,12435
13837,Medicare,76,5383
13944,Medicare,58,14104
13960,Medicare,47,10290
13994,Medicare,86,19362
14118,Medicare,84,4462
14245,Medicare,79,11047.25
14266,Medicare,73,10645
14310,Private,64,18439
14325,Medicare,56,21166
14357,Medicare,67,15689
14598,Medicare,69,1396
14603,Medicare,72,12203
14836,Medicare,49,15739
14939,Private,64,7270
14945,Private,59,16054
14977,Private,53,11089
14998,Medicare,42,18372
15057,Private,60,3803
15227,Private,59,38440.5
15301,Medicare,74,9276
15676,Private,58,55037
15677,Private,62,7335
15714,Medicare,80,50203
15716,Medicare,69,38262.5
15729,Private,46,2398
15832,Medicare,54,2489
15872,Private,39,11523
15919,Medicare,40,23377
16053,Medicare,65,6395.5
16093,Medicare,75,8925
16164,Medicare,76,30850
16194,Medicare,71,32407
16200,Medicare,304,18882.166666666668
16342,Private,65,9423.5
16492,Medicare,67,9937.5
16611,Medicare,41,8837
16724,Medicare,50,23693
16738,Medicare,81,7438
16856,Medicare,68,14366.666666666668
16897,Medicare,69,17115
17122,Medicare,307,72135
17161,Private,43,6235
17190,Private,62,55789
17282,Medicare,50,70271
17318,Private,47,8649
17399,Medicare,78,6004
17406,Medicare,53,7103
17497,Private,48,80079
17580,Medicare,52,2403
17651,Medicare,82,11218
17713,Private,59,9395
17852,Private,55,6165
17882,Medicare,63,10983
17899,Medicare,79,3873
17936,Private,47,19487
17946,Private,64,15006.5
17978,Medicare,50,39721
18006,Private,29,1505
18119,Medicare,70,34608
18123,Private,74,29126.333333333336
18186,Private,65,2987
18225,Medicare,82,14265
18232,Private,49,16105
18250,Medicare,69,19793.142857142855
18353,Medicare,63,38877.111111111109
18357,Medicare,66,6547
18455,Medicare,84,6938
18511,Medicare,67,11443
18620,Medicare,68,6315
18673,Medicare,72,10110.625
18712,Medicare,59,26489
18725,Medicare,52,6071
18737,Medicare,80,13353
18765,Medicare,83,11375
18815,Medicare,78,18354
18846,Medicare,62,22166.333333333332
18892,Medicare,53,24507
18921,Medicare,67,17179
18982,Medicare,70,43894.5
19107,Medicare,65,13879
19242,Medicare,70,22155
19375,Medicare,85,22860
19590,Medicare,75,10683.5
19851,Medicare,64,20838.5
19901,Private,59,3916
19940,Medicare,62,7017
19999,Medicare,68,7313
20132,Medicare,75,5917
20133,Private,51,10987.25
20236,Medicare,46,7110.5
20263,Medicare,61,13779.285714285714
20513,Private,59,6871
20528,Medicare,65,11178
20535,Medicare,63,17250
20624,Medicare,69,10430
20639,Private,30,25909
20643,Medicare,67,9941.5
20711,Medicare,81,10149
20745,Medicare,84,3167
20776,Private,67,4370
20901,Private,60,8523
20966,Medicare,64,49271
21015,Medicare,53,16530
21150,Private,65,11703
21252,Medicare,62,13466
21273,Medicare,58,8660
21607,Medicare,56,107526.33333333334
21633,Medicare,64,3651
21786,Medicare,56,10365
21819,Medicare,62,28943
22019,Medicare,65,7076.5
22180,Medicare,87,14467
22208,Medicare,79,55706
22412,Private,59,45060
22423,Medicare,71,9129
22450,Private,43,11499
22503,Medicare,44,10243
22585,Medicare,72,8693.3333333333339
22588,Private,62,14847
22631,Private,44,15564
22782,Medicare,80,28943
22792,Medicare,79,15629
23002,Private,65,270
23150,Medicare,80,9985.6666666666679
23201,Medicare,75,12433
23233,Private,64,1027
23242,Medicare,76,16877
23394,Medicare,70,13462.5
23533,Medicare,77,38893.5
23588,Private,56,3460
23706,Medicare,65,7690.666666666667
23716,Private,63,35488
23734,Medicare,47,6492.75
23792,Medicare,80,5865
23826,Medicare,58,6796
23943,Medicare,82,1212
23946,Medicare,78,5256
23949,Medicare,71,7222.6666666666661
24083,Medicare,73,26287
24099,Medicare,69,9378.75
24101,Private,42,38070
24181,Medicare,82,13048
24361,Medicare,56,41330
24548,Private,44,8523
24772,Medicare,63,8482
24846,Medicare,85,33590.5
24938,Medicare,43,11813
25009,Medicare,61,53035
25131,Medicare,72,11615
25218,Private,31,7530
25280,Private,42,13407.5
25574,Medicare,68,10511.5
25671,Private,58,4064
25757,Private,60,4920.5
25941,Medicare,54,7840
25969,Private,33,17695
26017,Medicare,75,2893
26031,Medicare,56,16433
26181,Medicare,72,13171
26311,Medicare,66,9030
26473,Medicare,69,5875
26515,Medicare,65,8220
26523,Private,62,9325.3333333333339
26685,Medicare,72,3529
26705,Medicare,45,3939
26724,Medicare,78,14533
26737,Medicare,85,14398
26748,Medicare,80,12369
26764,Medicare,87,5383
26780,Medicare,82,9940
26783,Medicare,47,39626
26855,Medicare,66,13110
26872,Medicare,54,5802
26886,Medicare,65,16104
26936,Medicare,70,5764
26940,Private,60,5246
26951,Medicare,73,17230
26956,Private,54,9034.3333333333321
27017,Medicare,73,3878
27022,Private,70,25236.5
27027,Private,68,4305
27041,Medicare,87,13798
27083,Private,60,5279
27088,Private,56,17114
27096,Private,53,2666
27102,Medicare,76,5809.4
27108,Private,61,7209
27116,Medicare,53,6379
27119,Private,67,5235
27198,Medicare,39,9339.5
27237,Medicare,55,13124
27272,Medicare,70,5962
27365,Medicare,66,14941.5
27374,Medicare,63,9504.8571428571413
27427,Medicare,75,1149
27459,Private,47,8312
27511,Private,55,9305
27529,Private,67,14979
27554,Medicare,72,19523.5
27570,Medicare,77,6375
27576,Medicare,72,20057.5
27615,Private,56,349
27680,Medicare,50,17025
27682,Medicare,47,16969
27706,Medicare,68,7530
27758,Medicare,45,3856
27770,Medicare,67,38392.5
27780,Medicare,83,8952
27798,Medicare,56,30432
27800,Medicare,65,9821
27816,Medicare,44,9522
27871,Private,65,14399
27889,Medicare,67,12896
27892,Private,59,5465
27921,Medicare,88,16718
28061,Medicare,82,13813
28072,Medicare,72,8540
28080,Private,63,8603
28084,Private,80,15670
28104,Private,60,5525
28129,Private,36,17535
28178,Medicare,67,16124
28180,Medicare,82,14055
28185,Private,66,22860
28204,Medicare,73,1734
28261,Medicare,77,12632
28313,Medicare,86,4165.3333333333339
28377,Private,66,3496
28424,Medicare,81,13245
28434,Medicare,85,26797
28437,Private,44,4359
28447,Medicare,79,5728
28460,Medicare,49,18088
28482,Medicare,76,8067
28495,Private,42,4182
28514,Medicare,82,3574
28520,Private,43,14695
28533,Private,62,61413
28600,Medicare,83,1817
28636,Private,55,34136
28648,Medicare,69,10197
28676,Private,64,6234
28680,Medicare,44,2757
28692,Medicare,78,6032
28698,Private,59,10689.333333333334
28727,Medicare,73,3955
28729,Medicare,51,9604
28733,Medicare,78,15583
28773,Private,60,7149
28887,Medicare,61,8986
28915,Medicare,53,10487
29031,Private,53,9296
29035,Medicare,64,23376.375
29063,Private,62,24608
29103,Private,46,3167
29143,Private,28,4467
29254,Private,63,16119
29275,Medicare,41,4207
29281,Medicare,75,18419
29299,Private,55,85604.5
29313,Private,61,14822
29323,Private,67,25287
29364,Medicare,70,2543
29378,Medicare,67,26343
29427,Private,65,14477
29428,Private,51,9180
29433,Private,59,9657.5
29459,Private,58,4156
29464,Medicare,74,9902
29492,Private,58,11232
29518,Medicare,50,5483
29545,Medicare,70,16122
29558,Medicare,60,18745.5
29597,Private,63,8687
29646,Medicare,82,1471
29651,Private,64,16252
29660,Medicare,44,6073.5
29664,Private,52,35665.5
29742,Medicare,22,28758
29753,Medicare,65,11937
29779,Medicare,72,8712
29786,Private,57,11375
29793,Private,65,38818
29811,Private,63,16285
29819,Private,61,2396
29830,Private,44,11835
29861,Medicare,69,13902.75
29972,Medicare,71,6656.333333333333
30009,Medicare,83,17382
30015,Medicare,75,4570
30051,Medicare,66,7302
30071,Medicare,67,7715
30091,Medicare,54,14625
30194,Medicare,83,2805
30208,Medicare,72,1911.5
30211,Private,47,19824
30214,Medicare,79,18675
30216,Medicare,71,25983
30278,Medicare,80,16447
30456,Private,64,9515
30458,Medicare,76,5920
30464,Private,46,5989
30476,Medicare,79,15405
30493,Medicare,75,24891
30503,Private,63,4557
30504,Medicare,75,14125
30561,Medicare,51,19075
30605,Private,55,11145
30608,Medicare,70,7396
30637,Private,56,41910
30646,Medicare,47,10471
30659,Medicare,58,34064
30715,Private,45,11351
30746,Medicare,76,8043
30805,Private,69,8494
30887,Medicare,55,13093.666666666666
30906,Medicare,65,12622
30950,Private,73,13763
30983,Private,51,26445
30988,Private,57,11524
31004,Medicare,72,21743
31033,Medicare,64,7018
31139,Private,61,5767
31185,Private,69,9867.5
31206,Medicare,72,19853
31209,Medicare,77,5563
31237,Private,65,26576
31239,Medicare,66,3020
31267,Private,68,10280
31269,Private,34,5916
31305,Private,58,13688
31553,Private,87,12966
31555,Medicare,55,7769
31556,Medicare,52,6570
31575,Private,50,4322
31651,Private,51,15430
31700,Medicare,77,6874.5
31763,Medicare,53,5658
31835,Private,43,2419
31836,Private,56,4932
31840,Private,64,9582
32010,Medicare,67,6533
32025,Private,55,5223
32046,Private,50,11276
32095,Medicare,71,6657
32119,Private,43,10928
32139,Private,63,19103
32193,Medicare,69,13742.666666666666
32276,Private,55,9105
32291,Private,46,10459
32303,Private,51,8771
32327,Private,61,5108
32331,Medicare,66,4965
32403,Medicare,79,12587
32410,Medicare,73,6688.5
32421,Medicare,89,22932
32426,Medicare,76,11323
32455,Private,62,12473
32500,Private,63,14812
32519,Medicare,65,18673
32532,Medicare,78,7455
32572,Medicare,75,49395
32605,Private,50,12848
32628,Medicare,81,21653
32697,Private,68,14309
32732,Private,49,7810
32734,Medicare,71,3435
32758,Private,60,10150
32773,Medicare,65,12736
40227,Private,63,20935
40304,Medicare,77,13946
40308,Medicare,60,18833
40425,Private,53,10279
40577,Private,52,20509.75
40672,Private,71,26373
40701,Medicare,72,53032
40798,Private,65,25056
40878,Medicare,72,21401
40911,Medicare,67,7455.25
41002,Private,59,6080
41245,Medicare,70,12485
41312,Private,57,5757
41359,Private,64,12551
41361,Private,59,7222
41373,Medicare,71,7366.333333333333
41385,Private,65,6137
41414,Medicare,46,6872
41592,Medicare,67,4012
41758,Medicare,67,18262
41795,Medicare,49,12284.5
41830,Medicare,76,12907
41854,Private,23,5730
41966,Medicare,77,979
42013,Medicare,77,4027
42062,Medicare,80,24885
42070,Medicare,84,4082
42194,Medicare,43,4308
42211,Private,52,10062
42251,Private,54,13322
42275,Medicare,77,4134
42583,Private,46,6014
42608,Private,68,3220
42711,Medicare,69,7270
42800,Medicare,55,6845
42820,Medicare,74,13064.2
43118,Medicare,51,42007
43138,Medicare,35,8383
43160,Medicare,68,4237
43233,Private,65,1710
43320,Medicare,73,52267
43472,Medicare,82,20996
43481,Medicare,75,5799
43565,Medicare,67,16325
43624,Private,54,8626
43656,Medicare,81,8770
43735,Medicare,82,6955
43786,Private,60,7651
43803,Private,28,15150
43866,Medicare,77,11477
43881,Private,53,8566
44071,Private,60,1438
44136,Medicare,41,7639
44430,Private,52,3105
44468,Private,74,13305
44486,Medicare,76,10758.5
44633,Private,62,17251
44751,Medicare,68,15544
44762,Medicare,65,10512
44969,Medicare,80,78750
45040,Medicare,81,19946
45099,Medicare,70,18724
45131,Private,53,17711
45291,Medicare,71,8548
45434,Medicare,56,14406
45575,Medicare,65,5664
45608,Medicare,68,16844
45698,Private,41,28340
45703,Medicare,79,23831
45765,Private,64,15570
45797,Medicare,71,25855
45914,Medicare,84,18597
45936,Medicare,56,13840
45956,Private,60,11682
45985,Medicare,68,7089.5
45999,Private,64,2676
46038,Medicare,80,18573
46085,Medicare,65,9078
46144,Private,49,5096
46178,Medicare,69,10956
46252,Private,52,8655
46373,Medicare,50,21945
46382,Private,56,11652
46392,Medicare,82,6791
46441,Medicare,73,9226
46492,Private,65,1678
46527,Medicare,45,4125
46588,Private,67,57161
46589,Medicare,69,1526
46693,Private,32,10038
46793,Private,69,7200
46836,Medicare,70,38136
46904,Medicare,51,7484.4
47127,Medicare,76,8137
47226,Medicare,53,24760
47240,Medicare,75,3773.333333333333
47271,Medicare,65,17548.75
47295,Private,60,2602
47342,Medicare,71,6399
47351,Medicare,86,7071
47407,Medicare,59,2208
47420,Private,41,5127
47511,Medicare,66,4322
47513,Medicare,59,9541
47547,Medicare,72,8473
47578,Medicare,53,28428
47654,Medicare,87,6000
47677,Medicare,76,11245
47683,Medicare,85,9995
47698,Private,55,4875
47733,Private,40,21627
47748,Medicare,73,5757.5
47799,Medicare,59,5965
47827,Medicare,80,18708
47861,Medicare,67,8409
47875,Private,54,15145
47887,Private,69,17223
47888,Private,50,4715
47955,Medicare,51,638
47978,Medicare,70,21349
47982,Medicare,67,16818
48087,Private,57,5600
48122,Private,66,11178
48169,Medicare,71,22761
48212,Private,55,10511
48231,Medicare,62,6128
48257,Private,57,4665
48320,Medicare,79,18706
48380,Private,70,10177
48391,Medicare,79,9958
48397,Private,50,10363
48418,Private,61,7109
48601,Medicare,51,4584
48617,Medicare,80,11625
48657,Medicare,54,2319
48687,Private,55,16952
48697,Private,62,8702
48756,Private,62,12176
48806,Medicare,88,21576
48837,Private,64,5336
48882,Private,64,22789
48925,Medicare,69,29386
49019,Medicare,68,16339
49053,Medicare,85,843
49068,Medicare,70,25654.5
49104,Medicare,44,7650
49139,Private,43,3255
49164,Medicare,49,35690
49255,Medicare,83,32932
49296,Medicare,75,6865
49375,Private,58,28405
49435,Medicare,48,16002
49460,Private,56,1303
49796,Medicare,67,64522
49801,Private,59,11769
49840,Medicare,55,24268
49963,Medicare,52,15584
50010,Medicare,65,8416
50039,Medicare,58,3040
50237,Medicare,78,11942
50334,Medicare,60,20140
50361,Medicare,61,21513
50484,Medicare,81,22802
50549,Medicare,79,11470
50623,Private,44,10182
50762,Private,58,14895
50889,Private,51,13125
50893,Private,62,1895
50906,Medicare,75,4920
51025,Medicare,65,31855
51064,Medicare,70,8594
51259,Private,62,7524
51300,Medicare,83,16268
51356,Private,67,5758
51428,Private,61,6090
51443,Medicare,58,42678
51628,Medicare,68,7097
51684,Private,54,12844
51716,Private,54,10041
51750,Private,50,3216
51793,Medicare,68,8199
51796,Private,54,27169
51839,Private,69,27596
51859,Private,58,9571
51921,Private,63,4625
51943,Medicare,78,3470
51992,Medicare,66,13498.5
52021,Medicare,87,9685.5
52162,Private,58,3493.5
52172,Medicare,69,11789
52188,Medicare,76,11775
52199,Private,58,20060
52278,Private,55,10425
52420,Private,52,8397
52452,Medicare,50,8406.5
52530,Medicare,81,6902
52577,Medicare,75,18316
52647,Medicare,82,10463
52710,Medicare,73,24339.5
52751,Private,57,1631
52778,Medicare,69,12854
52919,Medicare,71,17721
52932,Private,48,3568
52934,Private,55,9195
52953,Private,35,21172
52957,Medicare,71,10257
52978,Private,62,14935
53007,Medicare,61,11840
53149,Private,49,31790
53176,Medicare,65,4637.5
53220,Private,59,7785
53258,Private,44,44160
53282,Private,73,37866
53309,Private,76,9712
53348,Private,57,43541
53355,Medicare,80,33965.5
53459,Private,63,13614.5
53470,Medicare,81,11571
53474,Medicare,46,14624
53731,Private,52,44368
53743,Medicare,68,27074
53767,Medicare,72,1599
53878,Medicare,51,17260
53978,Private,55,3716
54078,Private,71,11340
54110,Medicare,81,10482
54353,Medicare,35,4361.5
54380,Medicare,69,11453
54527,Private,51,5642
54563,Medicare,59,11119
54609,Medicare,66,8207
54679,Medicare,82,8660
54762,Private,46,10272
54893,Medicare,75,12314
54979,Medicare,76,5345
55163,Private,54,9170
55219,Private,67,26235
55503,Medicare,86,4957
55601,Private,59,14011.5
55627,Private,62,7093
55682,Medicare,78,7189
55700,Medicare,79,6920
55753,Medicare,80,8722
55783,Medicare,67,18192.5
55799,Private,55,2508
55807,Private,57,7530
55909,Medicare,46,4882
55920,Medicare,61,23518.5
55973,Medicare,61,13026
56128,Medicare,45,4470
56155,Private,62,36285
56179,Medicare,63,8926
56204,Medicare,79,29956
56266,Private,63,6360
56269,Medicare,72,3808
56283,Medicare,76,5518
56340,Private,57,7897
56427,Medicare,49,17585
56456,Medicare,56,6442
56490,Medicare,59,9761
56527,Medicare,72,28826.333333333332
56530,Medicare,70,5760
56565,Medicare,71,51736
56572,Medicare,70,8543
56621,Private,64,4231
56697,Medicare,80,38711
56840,Medicare,80,8744
56865,Private,66,1117
56880,Medicare,89,3390
56890,Private,57,26203
56900,Private,65,5840
56954,Medicare,74,20869
56996,Medicare,68,2752
57055,Medicare,79,11441
57290,Medicare,64,21459
57342,Private,67,7446
57377,Medicare,74,1321
57467,Private,62,1849
57476,Medicare,68,17036
57496,Medicare,52,6689
57599,Private,49,30095
57615,Medicare,73,8832
57763,Private,65,8930
57765,Medicare,80,8189.5
57767,Medicare,88,9373
57806,Private,63,13058
57953,Private,38,10641
58022,Medicare,69,10469
58028,Medicare,59,4032
58100,Private,53,24032
58108,Medicare,68,7816
58121,Private,56,7014
58203,Private,48,14755
58229,Medicare,66,15922
58242,Medicare,58,18892.5
58310,Medicare,74,4201
58321,Medicare,84,2934
58373,Private,47,8242
58464,Medicare,41,24552
58514,Private,49,14125
58723,Medicare,65,3098
58773,Medicare,79,6473
58781,Medicare,66,33317
58794,Medicare,89,14208
58809,Medicare,77,5629
58857,Medicare,69,11672
58938,Medicare,61,7980
58963,Medicare,76,3235
58991,Private,52,11819
59049,Private,58,6639
59102,Medicare,72,13415
59194,Medicare,48,30042
59275,Medicare,72,1464
59349,Medicare,73,8195
59373,Private,33,53016
59494,Private,61,6295
59523,Private,45,9415
59630,Medicare,70,5939.2
59675,Medicare,68,6613
59725,Private,61,6007
59728,Private,60,4970
59736,Medicare,88,16133
59854,Private,56,9284
59883,Medicare,87,9928
59943,Medicare,69,8680
59946,Medicare,56,16970
59970,Private,64,67876
60130,Private,35,10813
60168,Private,57,32116
60245,Private,53,8827
60362,Medicare,74,9163
60500,Medicare,77,5929
60505,Medicare,66,16091
60550,Medicare,82,4466
60598,Medicare,67,5406
60719,Private,65,6236
60720,Medicare,66,7324
60737,Medicare,67,4659.5
60988,Medicare,82,15509
60998,Private,62,8713
61005,Private,68,12128
61012,Private,63,8740
61030,Medicare,76,847
61085,Private,62,21396
61182,Medicare,66,8715
61189,Private,68,4832
61272,Private,58,6210
61316,Private,54,3556
61375,Private,37,1560
61379,Private,66,13824
61465,Medicare,68,38214
61597,Medicare,72,16420
61630,Medicare,69,10121
61658,Medicare,81,4548
61665,Private,49,5240
61687,Private,56,975
61742,Medicare,74,29820
61800,Medicare,76,3283
61882,Medicare,64,2404
61926,Private,53,5344
61991,Medicare,51,16420
62024,Private,62,7064
62169,Medicare,59,17608
62194,Medicare,60,5789.5
62199,Medicare,72,3483
62316,Medicare,73,10485
62415,Private,62,38436
62478,Medicare,303,3808
62522,Private,34,11875
62571,Private,56,2840
62603,Private,46,15875.333333333334
62650,Medicare,76,21990
62689,Medicare,70,10370
62710,Private,66,7678
62731,Private,46,6060
62750,Medicare,44,5281
62931,Private,59,7246
62933,Medicare,76,6999
63063,Private,64,6955
63236,Private,66,10645
63243,Medicare,77,5543
63298,Medicare,84,30272
63307,Private,56,2864
63327,Medicare,53,10603
63329,Private,56,18558
63363,Private,57,6015
63383,Private,45,16915
63525,Private,47,18515
63537,Medicare,76,34998
63581,Private,64,16727
63582,Medicare,56,7720
63601,Medicare,69,3315
63697,Private,76,9043
63713,Medicare,77,10391
63720,Medicare,78,10260
63773,Private,61,8529
63952,Private,35,25689
64082,Medicare,78,15512
64086,Medicare,68,3842
64087,Medicare,87,4628
64112,Private,54,11432
64182,Private,41,10059
64238,Medicare,79,2915
64245,Private,68,8469
64249,Medicare,76,15164
64334,Medicare,54,111564
64336,Medicare,82,18730
64656,Private,75,15716
64819,Medicare,69,11491
64825,Private,43,20487
64874,Private,53,7219
64919,Medicare,62,7195
65003,Medicare,69,6268
65056,Medicare,66,24051
65082,Private,61,1081
65227,Private,66,10425
65261,Medicare,76,832
65263,Medicare,69,6947
65360,Private,50,19814
65361,Medicare,81,7764
65370,Medicare,77,17124
65560,Medicare,70,8899
65570,Medicare,22,29850
65609,Private,65,2402
65689,Medicare,74,15526
65843,Private,71,13974
65861,Private,61,11335
65862,Medicare,78,7739
65982,Private,62,44099
66014,Private,65,5196
66015,Medicare,68,6197
66033,Private,49,653
66068,Private,65,5985
66105,Private,55,56170
66158,Private,59,4379
66208,Medicare,60,10376
66256,Medicare,64,4215.333333333333
66307,Private,62,15107.5
66320,Private,49,1665
66365,Medicare,69,8683
66481,Medicare,77,8676
66532,Private,63,11923
66557,Private,61,23335
66637,Private,61,4184
66730,Medicare,73,21671
66739,Medicare,87,10278
66756,Private,51,6150
66765,Private,59,9198
66807,Medicare,79,25454
66823,Medicare,79,10564
66878,Private,68,6126
66894,Medicare,57,1339
66983,Medicare,65,4807
67037,Private,47,6355
67256,Medicare,78,11599
67260,Private,45,6456
67265,Private,52,5178
67375,Private,68,11226
67415,Private,55,20060
67546,Medicare,60,1474
67625,Medicare,82,5161
67653,Medicare,74,17408
67740,Private,58,6794
67761,Medicare,77,7158
67774,Medicare,66,6248
67807,Private,64,2634
67821,Private,61,1736
67906,Medicare,52,29380.333333333332
68003,Medicare,60,5430
68030,Medicare,56,5760
68036,Medicare,78,56953
68126,Medicare,75,8574
68127,Medicare,57,4261
68152,Medicare,81,15276
68201,Private,59,12010
68322,Private,71,5950
68428,Private,62,7221
68433,Medicare,69,9333.5
68457,Medicare,67,8375
68460,Medicare,31,7347
68502,Private,64,22140
68507,Medicare,65,7122
68513,Medicare,83,1954
68607,Private,59,4880
68651,Medicare,78,19989
68699,Private,59,14325
68728,Medicare,77,10007
68736,Medicare,58,9856
68816,Private,51,6011
68827,Private,54,11385
68875,Private,61,13116
68915,Medicare,77,14045
69021,Medicare,61,11195
69027,Medicare,64,16814
69079,Medicare,63,8436
69219,Private,67,35910
69225,Medicare,78,11862.2
69246,Medicare,72,6766
69296,Medicare,63,15866
69426,Medicare,76,11427
69450,Medicare,81,6973
69480,Private,53,8428
69559,Medicare,77,4317
69709,Medicare,73,19251
69727,Private,58,7409
69791,Private,71,6907
69871,Medicare,79,11357
69925,Private,67,7670
69947,Medicare,75,6624
69976,Medicare,62,4798
70110,Medicare,85,8763
70206,Medicare,56,14305
70234,Private,44,5298
70303,Medicare,73,3654
70561,Private,49,4036
70617,Private,30,18439
70698,Private,61,16936
70745,Private,72,11481.5
70842,Private,61,10340
70864,Medicare,71,8899
70906,Medicare,73,15542
70944,Medicare,62,10119
71089,Medicare,58,3426
71130,Private,23,45691
71194,Private,66,8103
71260,Medicare,80,8633
71381,Private,43,7549
71483,Private,56,7887
71493,Medicare,81,2446
71665,Medicare,82,8184
71698,Medicare,73,13923
71792,Medicare,75,23740
71872,Medicare,70,14064
71962,Private,50,17490
72073,Private,42,12659
72209,Medicare,66,19681
72269,Medicare,74,4920
72289,Private,55,12818
72314,Private,74,9746
72364,Medicare,75,19160
72390,Medicare,57,34776
72467,Medicare,76,13039
72627,Private,78,23947
72678,Private,55,37891
72688,Medicare,71,13038
72760,Medicare,69,18203
72932,Medicare,84,6961
72980,Private,51,7390
73129,Medicare,55,16734
73206,Private,56,10693
73249,Private,64,4488
73320,Medicare,59,6165
73340,Medicare,68,6451
73479,Medicare,64,3039
73488,Medicare,39,11657.75
73615,Medicare,65,10600
73645,Medicare,29,7979.5
73755,Private,72,25848
73776,Private,36,6790
74010,Medicare,79,10904
74034,Private,53,9954
74081,Private,55,8600.5
74181,Medicare,84,14445
74223,Medicare,81,7284.5
74232,Medicare,77,4011.5
74257,Medicare,54,12618
74350,Private,57,3099
74421,Medicare,64,9905
74502,Medicare,77,11901
74503,Private,61,22498
74687,Medicare,74,8782
74733,Private,64,8843
74795,Private,63,9101
74835,Medicare,37,25979
74851,Private,34,10717
74880,Medicare,72,9049
74964,Private,60,5556
75029,Private,61,14283
75034,Medicare,76,21369
75051,Medicare,72,19967
75053,Medicare,66,9570
75073,Medicare,68,6944
75083,Private,65,11835
75084,Private,61,13115
75194,Private,63,18777.5
75241,Medicare,69,9482
75472,Medicare,73,1993
75514,Private,29,7620
75525,Private,53,4129
75582,Medicare,69,3864
75589,Private,31,750
75644,Private,47,25800
75658,Medicare,84,50660
75796,Medicare,73,6872
75806,Private,50,4010
75826,Private,59,14053
76035,Private,62,1562
76096,Medicare,70,21722
76134,Private,39,19537.75
76222,Medicare,86,39701.5
76231,Medicare,77,8802
76390,Medicare,80,21266
76414,Medicare,76,9961
76479,Private,55,12181
76558,Medicare,58,4392
76598,Medicare,57,7318
76603,Medicare,81,14641
76637,Private,53,22362
76639,Private,63,8188
76646,Private,55,11895
76683,Medicare,69,17640
76782,Medicare,69,15782
76923,Medicare,69,14206
76984,Private,39,364
76987,Medicare,67,10434
77019,Medicare,82,11774
77099,Private,56,6495
77124,Private,41,4584
77129,Medicare,85,8656
77227,Medicare,88,17841
77370,Medicare,68,13123
77487,Medicare,75,9282
77500,Medicare,60,10590
77524,Private,53,7957
77625,Private,51,11880
77673,Private,63,11554
77716,Private,54,13070
77746,Private,48,10785
77807,Private,84,21278
77873,Private,66,21323
77882,Medicare,72,5547
77911,Private,72,7635
77947,Medicare,64,11656.333333333332
77957,Medicare,57,20006
78050,Medicare,82,10364
78076,Medicare,70,80585.5
78292,Medicare,72,21590
78307,Medicare,73,29927
78380,Medicare,64,19892
78416,Medicare,60,30037
78533,Medicare,78,28955
78651,Private,48,24686
78666,Medicare,76,7624
78693,Private,65,21880
78739,Medicare,59,7664
78803,Medicare,39,9836
78932,Private,70,8083
78966,Medicare,85,18294
78979,Medicare,73,8994
78996,Medicare,68,8593
79038,Medicare,80,12729.5
79126,Medicare,66,9453
79210,Private,49,3750
79242,Medicare,67,11875
79262,Medicare,81,8914
79283,Medicare,78,21385
79392,Medicare,67,28424
79441,Medicare,62,18495
79481,Private,48,4028
79591,Medicare,50,1468
79645,Private,60,50848.5
79651,Medicare,76,24591
79677,Private,61,13022
79762,Private,57,10680
79836,Medicare,81,18945
79851,Medicare,53,15576
79898,Medicare,75,5979
79939,Medicare,68,5760
80041,Medicare,46,4154
80134,Private,37,16513
80206,Private,64,7151
80237,Medicare,41,8693
80248,Private,56,4553
80287,Private,41,20580.666666666664
80305,Medicare,59,7665
80326,Private,56,4717
80419,Medicare,69,17841
80430,Private,37,18383
80539,Medicare,74,11705
80559,Medicare,48,8227
80632,Private,60,12122
80658,Private,58,33347
80663,Private,25,1595
80744,Medicare,53,8521
80790,Medicare,74,3967
80791,Medicare,60,9120
80799,Private,52,19452
80903,Medicare,71,18898
80942,Medicare,66,25200
81041,Private,51,5294
81085,Medicare,70,11736
81141,Medicare,52,2675
81173,Medicare,73,8985
81215,Private,74,14460
81229,Private,63,5039
81342,Private,59,5429.5
81536,Medicare,67,19980
81562,Private,59,7065
81593,Medicare,68,16102
81700,Medicare,50,11394
81778,Medicare,78,10485
81825,Medicare,69,44830
81866,Medicare,72,16783
81883,Private,61,7444
81893,Private,63,8297
81926,Private,59,6399.5
81968,Medicare,70,2075
81978,Private,41,5386
82006,Private,54,2334
82010,Private,53,22080
82011,Private,71,10868
82048,Private,64,18885
82049,Medicare,81,4717
82068,Private,55,10074
82091,Private,71,27580
82111,Medicare,83,16690
82244,Medicare,75,10106
82512,Medicare,70,16089
82520,Medicare,63,10530
82575,Private,57,41353
82605,Private,63,16038
82773,Medicare,65,3165
82904,Medicare,43,13724
82960,Private,57,9311
83010,Medicare,83,13485
83060,Medicare,55,5343
83156,Medicare,39,5773
83206,Private,57,2547
83212,Medicare,81,12229
83261,Medicare,71,15501
83300,Medicare,59,23231
83342,Private,46,13850
83375,Private,34,13525
83416,Private,48,9031
83433,Medicare,81,9806
83442,Private,60,14048
83496,Medicare,65,11890
83499,Medicare,66,11444
83565,Medicare,75,33775
83608,Medicare,42,24904
83670,Private,64,16013
83802,Medicare,64,14255
83838,Private,52,5141
83845,Medicare,74,7037
84042,Private,64,30376
84061,Medicare,77,21587
84084,Medicare,64,6015
84120,Medicare,82,10322
84128,Private,45,8550
84208,Medicare,65,18495
84266,Medicare,82,300
84302,Private,26,18125
84324,Private,59,8490
84362,Medicare,66,7077
84399,Medicare,77,14555
84406,Medicare,80,5214
84410,Medicare,60,3056
84461,Medicare,66,49887
84469,Medicare,73,35016.5
84488,Private,49,5238
84534,Medicare,82,5948.333333333333
84555,Medicare,80,36926
84598,Private,63,7215
84624,Private,64,20310.5
84632,Medicare,66,4490
84710,Private,64,2986
84934,Medicare,72,8211
85033,Medicare,82,12060
85175,Medicare,77,13305
85330,Medicare,81,10393
85417,Private,50,23185.75
85490,Medicare,58,3758
85495,Private,65,6286
85575,Medicare,69,4409
85583,Private,28,7909
85690,Private,48,7625
85723,Medicare,73,18312.666666666668
85845,Private,71,5603
85860,Medicare,66,9024
85881,Private,59,10745
85889,Private,53,11158
85898,Medicare,64,11283
85968,Medicare,78,14895
85998,Medicare,73,16808
85999,Medicare,57,12261.5
86165,Medicare,80,11680
86193,Private,69,24733
86233,Medicare,74,20625
86306,Medicare,68,4589
86317,Medicare,84,8454
86331,Private,49,11568
86348,Medicare,81,20932
86379,Medicare,69,19080
86455,Medicare,84,13918
86628,Medicare,78,8724.3333333333339
86660,Private,60,11365
86666,Private,63,12260
86763,Private,58,7567
86821,Private,70,24484
86845,Medicare,80,1260
86929,Private,67,6255
87007,Medicare,68,11750
87121,Private,61,10907
87207,Private,60,7425
87209,Medicare,60,13331
87266,Private,62,9866
87276,Private,54,10650
87410,Private,42,7489
87438,Private,65,6990
87608,Medicare,48,9556
87642,Private,51,4307
87685,Private,59,4536
87949,Medicare,74,9246
87962,Medicare,81,10540.5
87982,Private,52,15632
88009,Medicare,67,11118
88146,Private,53,30511
88187,Private,31,4112
88196,Private,60,8650
88429,Private,62,20855
88441,Medicare,66,5513
88499,Private,24,11994
88500,Private,81,4389
88531,Medicare,70,3380
88539,Medicare,73,11585
88571,Medicare,77,22200
88683,Medicare,88,12652
88690,Private,47,1575
88731,Private,49,23517
88738,Medicare,65,39818
88749,Medicare,71,5688
88755,Medicare,67,4720
89168,Private,57,32809
89225,Private,60,11670
89387,Private,48,979
89394,Medicare,59,8721
89445,Medicare,85,6594
89447,Medicare,63,16264
89555,Private,53,12141
89565,Medicare,69,25610
89797,Medicare,66,35601
89818,Medicare,71,26050
89978,Medicare,65,10221
90020,Medicare,77,7978.5
90057,Medicare,67,14114
90106,Private,49,45220
90165,Private,48,39779
90269,Medicare,76,19115
90369,Medicare,76,9459.8333333333321
90389,Medicare,81,16025
90460,Private,64,5835
90483,Private,56,4316
90533,Medicare,69,18767.5
90609,Private,51,16855
90696,Private,38,4379
90700,Medicare,77,10150
90716,Private,64,5717
90768,Medicare,71,11318
90845,Medicare,62,7489
90863,Medicare,74,15437
90898,Medicare,71,5407
90942,Medicare,81,7355
90957,Medicare,54,38880
90962,Private,60,7200
91001,Private,56,18603
91024,Medicare,74,5419.5
91074,Medicare,67,28793
91092,Medicare,45,3034
91101,Private,26,17048
91289,Medicare,61,35754
91449,Private,56,5699
91461,Medicare,78,7547
91491,Medicare,72,4670
91561,Medicare,78,25944
91633,Medicare,76,7335
91673,Medicare,59,13194
91680,Medicare,68,6285
91711,Medicare,71,26130
91782,Private,63,13995
91862,Medicare,77,17146
92137,Medicare,66,21791
92233,Medicare,82,10286
92346,Medicare,66,38824
92352,Medicare,66,10104
92382,Medicare,83,8871
92629,Private,49,5392
92721,Private,42,23118
92890,Private,53,15907
92982,Private,65,8389
93002,Medicare,88,16499
93026,Medicare,66,4992
93098,Medicare,70,13147
93213,Private,71,2904
93231,Private,46,13968
93233,Medicare,68,13954.5
93235,Private,82,5513
93280,Medicare,65,5704
93284,Medicare,76,1905
93374,Medicare,72,9951
93394,Medicare,68,7450
93410,Private,50,3538
93505,Private,56,9089
93506,Private,57,14249
93535,Medicare,84,14943
93571,Medicare,64,10575
93640,Medicare,69,53340
93814,Private,76,3048
93829,Private,48,15142
93847,Private,71,5608
93983,Medicare,59,20348
94009,Private,57,9649
94049,Medicare,68,2933
94103,Private,66,15818
94166,Medicare,72,37129
94167,Medicare,75,5849
94216,Medicare,61,13345
94292,Medicare,81,10424
94335,Medicare,80,14781
94378,Medicare,59,2822
94404,Private,40,2037
94422,Medicare,35,27344
94530,Medicare,60,10377
94539,Medicare,64,12537
94574,Medicare,76,18749.5
94726,Private,55,7123
94762,Medicare,66,23539.5
94781,Private,38,5745
94864,Private,54,18451
94911,Medicare,86,4164
94912,Medicare,65,8951
94942,Medicare,80,5424
94992,Private,47,4771
95000,Medicare,85,11985.333333333334
95076,Medicare,76,17466
95093,Medicare,77,5347
95126,Private,55,2720.5
95387,Medicare,70,21066
95396,Private,57,6282
95495,Private,55,7405
95542,Medicare,60,15640
95561,Medicare,68,9966.5
95637,Medicare,50,28581.333333333332
95638,Private,59,8752
95673,Private,46,16797
95754,Private,62,25774
95782,Medicare,74,26295.5
95787,Private,54,3795
95834,Medicare,81,7065
95919,Private,63,6180
95977,Medicare,74,7008
95995,Medicare,67,17338
96008,Medicare,78,27722
96017,Medicare,67,16185
96108,Private,85,12935
96177,Medicare,77,45784
96232,Private,64,62235
96254,Medicare,56,361
96259,Medicare,54,1181
96261,Private,63,17015
96347,Medicare,80,10526
96356,Medicare,67,5291
96391,Private,47,17901
96404,Medicare,78,13775.5
96430,Medicare,75,18345
96456,Medicare,69,14233
96624,Medicare,80,21575
96675,Medicare,54,12649
96703,Medicare,51,6933
96774,Private,52,1917
96843,Private,43,8591
96901,Medicare,71,7201
96950,Medicare,84,13101.5
96977,Private,59,32708
97046,Medicare,68,10127
97152,Medicare,67,18825
97212,Medicare,74,8434
97266,Medicare,71,4141
97381,Medicare,48,44841
97449,Private,30,41703
97475,Private,59,6330
97545,Medicare,59,6160
97737,Private,32,6349
97772,Medicare,65,771
97818,Private,62,2886
97984,Private,62,46082
98185,Private,61,9104
98198,Private,59,32697
98227,Medicare,73,7705
98249,Private,56,6001.5
98258,Private,66,1585
98280,Medicare,79,36850
98295,Medicare,69,9387
98336,Medicare,60,4687.5
98362,Private,65,2863
98517,Medicare,65,33994
98565,Medicare,62,9135
98593,Private,62,23048.25
98685,Private,55,9689
98815,Private,44,21530
98931,Private,57,10281
99018,Private,63,5772
99082,Medicare,71,18224
99098,Medicare,42,14922
99110,Medicare,47,3904
99120,Private,64,20560
99185,Medicare,77,55752
99260,Private,53,14310
99322,Private,52,19637
99354,Medicare,80,4597
99439,Medicare,84,5643.4
99454,Medicare,79,13536
99650,Medicare,55,56677
99660,Medicare,75,7237.5
99661,Medicare,43,5240
99708,Private,69,10290
99714,Medicare,82,5769
99776,Private,56,22326
99790,Medicare,65,9809
99791,Medicare,61,9140
99796,Medicare,63,10563
99810,Private,58,7368
99832,Private,61,13189
99973,Private,65,6432
