subject_id,insurance,first_admit_age,average_wait_time_admit_to_discharge
36,Medicare,70,11925
41,Private,56,39195
45,Private,42,15247
53,Private,46,4180
65,Private,26,14914
85,Medicare,77,6995
114,Private,48,8088
132,Private,56,26777
160,Private,50,3357
174,Medicare,25,10239
200,Private,24,14423
223,Medicare,68,88141
236,Private,53,16721
251,Private,20,3397
252,Private,55,33756
273,Private,34,2089
291,Medicare,72,3046
303,Private,21,8501
307,Medicare,74,26831
315,Medicare,73,19899
324,Private,55,968
330,Private,68,36270
372,Private,45,11438
398,Private,57,4472
417,Private,51,536
422,Private,58,21152
454,Medicare,56,9673
456,Private,47,8760
457,Private,54,43116
536,Private,25,2249
546,Medicare,79,22211
561,Medicare,64,4374
587,Private,56,51882
592,Private,63,10459
630,Private,46,10973
639,Medicare,52,6042
678,Private,53,23370
680,Medicare,77,4860
695,Medicare,83,19785
720,Medicare,52,49553.5
738,Private,62,9254
748,Private,20,1153
822,Medicare,37,6937
823,Private,37,2629
852,Private,52,2782
880,Medicare,83,5945
914,Medicare,50,21796
923,Medicare,49,12653
1045,Private,39,8701
1047,Private,46,10560
1104,Private,39,17732
1119,Medicare,72,13047
1127,Private,20,2154
1128,Private,44,6995
1148,Private,58,6083
1162,Private,53,2637
1166,Medicare,88,2497
1190,Private,64,10703
1194,Private,65,7126
1196,Private,50,16754
1211,Private,43,1228
1214,Medicare,68,10425
1217,Private,53,9815
1232,Private,47,18142
1245,Private,45,10418
1260,Private,57,11647
1272,Private,60,19652
1301,Private,43,7826
1351,Medicare,74,11121
1372,Private,60,2109
1386,Private,54,6645
1407,Medicare,38,4045
1442,Medicare,83,4052
1443,Private,50,7885
1477,Private,57,3285
1492,Medicare,56,5277
1533,Medicare,60,5550
1550,Private,58,22033
1551,Private,37,13861
1571,Medicare,67,7393
1593,Medicare,73,13866
1616,Medicare,49,7050
1627,Private,57,2881
1636,Private,64,11489
1712,Private,52,48062
1725,Private,59,21293
1754,Private,51,26855
1763,Private,33,38689
1804,Medicare,75,11437
1808,Private,43,20400
1823,Private,53,4059
1844,Private,21,49713
1859,Private,47,19730
1872,Medicare,75,12773
1886,Private,53,18754
1910,Medicare,70,11970
1939,Private,56,4207
1963,Private,46,6677
1969,Private,68,7384
1985,Medicare,82,2535
1995,Medicare,73,13074
2021,Medicare,66,48266
2033,Private,58,9130
2039,Medicare,50,5709
2114,Medicare,69,28359
2116,Medicare,62,6916
2159,Private,53,10245
2183,Private,22,4882
2184,Medicare,43,5304
2193,Private,22,3238
2194,Medicare,75,12180
2215,Medicare,67,14640
2238,Private,27,14094
2240,Private,44,3875
2265,Private,76,42232
2326,Private,49,6761
2338,Private,61,9644
2343,Medicare,50,15435
2349,Medicare,54,10740
2354,Private,30,5895
2356,Medicare,76,4408
2365,Medicare,48,10410.333333333332
2394,Private,42,29067
2406,Medicare,43,9433
2445,Medicare,57,18279
2451,Medicare,72,7909
2455,Private,54,11573
2456,Private,60,3079
2469,Medicare,76,1015
2489,Medicare,66,5974
2508,Medicare,68,25778
2512,Private,54,15339
2522,Private,44,15814
2536,Private,57,4240
2554,Private,52,5618
2563,Private,44,9713
2580,Medicare,46,12543
2589,Medicare,65,2969
2650,Private,34,121345
2659,Private,18,1373
2680,Private,21,43693
2718,Medicare,72,5624
2730,Private,51,2949
2744,Private,47,5187
2747,Private,53,11475
2752,Medicare,59,5416
2756,Private,58,9913
2787,Private,59,3506
2807,Medicare,67,32218
2822,Medicare,69,12894
2825,Private,33,2515
2841,Private,60,10126
2879,Medicare,45,23775
2881,Private,20,16645
2899,Private,56,9722
2904,Private,61,10997
2961,Medicare,85,28877
2963,Private,60,5812
2971,Medicare,36,20992
2978,Private,58,5494
2996,Private,47,6619
3016,Medicare,79,4995
3021,Private,59,13947
3023,Private,48,10018
3024,Medicare,75,15998
3026,Private,51,8713
3032,Private,46,7824
3038,Medicare,70,15365
3068,Private,51,6400
3078,Private,45,12823
3081,Medicare,45,7319
3084,Private,61,11037
3115,Medicare,43,10342
3116,Private,53,5686
3127,Medicare,54,11480
3172,Private,54,26332
3198,Private,52,9461
3204,Medicare,86,8970
3220,Medicare,61,12361
3221,Private,51,12306
3235,Private,66,24560
3258,Private,51,18555
3265,Private,64,30177
3273,Medicare,48,16807
3288,Private,60,13486
3312,Private,17,54545
3314,Medicare,43,2366
3335,Private,64,5004
3429,Medicare,39,2983
3435,Private,56,6832
3469,Medicare,41,47997
3477,Private,47,7210
3488,Medicare,85,19211
3543,Private,61,11515
3575,Medicare,57,2132.2
3579,Private,50,908
3586,Medicare,44,4948
3597,Private,35,40817
3617,Medicare,74,4803
3632,Medicare,68,30929
3644,Medicare,54,5148
3684,Private,51,34327
3686,Private,56,20342
3693,Medicare,46,1665
3759,Medicare,49,11194
3760,Medicare,71,8468
3784,Private,26,28442
3793,Medicare,67,5100.5
3796,Private,60,6513
3805,Private,55,8749
3866,Medicare,50,28974
3871,Medicare,52,7357
3876,Private,48,18862
3877,Private,54,15472
3883,Medicare,86,1764
3884,Medicare,58,19878
3926,Medicare,81,27405
3951,Medicare,88,13611
3956,Private,62,7465
4002,Private,60,2643
4039,Private,66,6642
4040,Private,52,7040
4047,Private,47,22908
4058,Private,41,20989
4063,Private,69,11810
4071,Medicare,84,28155
4113,Medicare,46,17964.5
4118,Private,52,18840
4177,Medicare,47,42843
4184,Private,56,2534
4187,Medicare,50,6817
4199,Private,73,42718
4273,Private,61,18243
4286,Medicare,58,666
4288,Private,57,11308
4303,Private,57,6193
4313,Medicare,31,18384
4330,Private,24,7415
4331,Medicare,73,6608
4332,Private,29,33512
4378,Medicare,69,19822
4455,Private,70,4070
4473,Private,40,31468
4503,Private,47,2141
4574,Private,50,16926
4579,Private,57,19697
4588,Medicare,37,10123.2
4626,Private,50,38531
4635,Medicare,47,9941
4651,Private,60,41065
4668,Medicare,36,27571
4691,Medicare,68,3745
4700,Private,65,24011
4713,Medicare,62,10106
4725,Private,29,10448
4731,Private,58,6188
4784,Medicare,66,24785
4823,Private,48,5101
4836,Medicare,81,5674
4841,Private,51,3437
4868,Private,56,6922
4873,Medicare,39,16682.5
4881,Private,57,5978
4906,Private,62,7860
5030,Medicare,70,4191
5037,Medicare,33,2896
5056,Private,40,28471
5058,Medicare,56,8113
5075,Private,58,10420
5090,Private,50,54255
5119,Medicare,77,13244
5129,Medicare,75,9935
5193,Medicare,71,7966
5253,Private,39,4803
5260,Private,25,1428
5270,Private,33,8913
5310,Medicare,73,7423
5314,Medicare,52,2986
5321,Private,54,6508
5350,Private,67,6888
5354,Private,39,13330
5364,Private,40,12257
5384,Private,46,39188.5
5415,Private,24,2109
5425,Private,41,16350
5460,Private,54,10768
5465,Private,25,2551
5495,Medicare,79,34136
5545,Private,72,8341
5564,Medicare,59,9256
5571,Private,19,1650
5575,Medicare,51,8060
5591,Private,51,4282
5618,Private,45,2662
5638,Private,20,16166
5645,Medicare,38,4924.5
5681,Medicare,53,4009
5693,Private,72,9471
5740,Medicare,77,38926
5833,Medicare,45,7937
5852,Medicare,81,18699
5885,Private,50,21419
5895,Medicare,33,6773
5906,Private,31,22091
5911,Private,60,21424
5932,Private,62,14669
5939,Medicare,40,8555
5966,Medicare,70,16088
5996,Medicare,61,8404
6002,Medicare,82,17800
6061,Medicare,49,25989
6062,Medicare,72,16286
6067,Private,56,1887
6081,Private,62,18589
6104,Private,60,9395
6108,Private,47,47633
6171,Medicare,56,7152.5
6173,Private,53,14748
6183,Medicare,82,9886
6189,Private,56,6809
6223,Private,51,4596
6234,Private,60,9676
6252,Medicare,51,15324
6255,Medicare,70,11285
6262,Medicare,48,24397
6318,Private,55,27587
6321,Private,33,6392
6325,Medicare,39,16969
6344,Medicare,67,10067
6362,Private,55,30111
6381,Private,46,69338
6436,Private,23,9663
6447,Medicare,44,7090
6448,Medicare,67,10260
6451,Private,65,6807
6466,Medicare,72,25926
6469,Medicare,73,61101
6501,Medicare,55,1787
6515,Private,56,13377
6579,Private,32,7519
6585,Private,26,621
6628,Private,44,6932
6655,Medicare,64,13330
6657,Medicare,51,15630
6695,Private,50,8580
6718,Medicare,41,65210.5
6722,Private,60,15543
6768,Private,23,4352
6777,Private,58,13545
6800,Medicare,54,4208
6805,Medicare,48,12643.5
6828,Medicare,48,2929
6847,Medicare,71,6262
6876,Private,42,13904
6894,Private,55,11796
6959,Private,16,5478
7053,Medicare,65,7565
7069,Private,44,1983
7075,Private,55,8258
7093,Private,33,32301
7102,Private,51,3822
7115,Private,49,9240
7157,Private,47,924
7161,Private,49,5214
7171,Private,51,7153
7175,Private,52,56258
7178,Private,46,7720
7180,Private,67,24273
7185,Private,39,22565
7187,Medicare,79,8187
7214,Medicare,81,7039
7238,Medicare,46,9651
7241,Private,34,4519
7260,Medicare,70,34433
7275,Medicare,59,2038
7328,Medicare,72,4510
7339,Medicare,66,6880
7357,Private,58,18674
7359,Private,43,3191
7371,Private,48,4532
7387,Private,57,20831
7442,Private,61,8504
7444,Private,24,52609
7476,Medicare,79,5259
7491,Private,49,3081
7492,Private,56,5904
7529,Private,56,4579
7538,Medicare,59,82980
7566,Private,55,26427
7577,Medicare,81,17040
7599,Medicare,72,5536
7610,Private,19,5993
7615,Medicare,81,22802
7632,Private,57,21846
7650,Medicare,44,39687
7654,Private,53,3368
7676,Medicare,44,4833.333333333333
7680,Private,39,10331
7685,Medicare,61,4895
7709,Medicare,79,28394.5
7710,Medicare,68,7865
7715,Medicare,55,9584
7726,Medicare,45,6272
7757,Private,58,61450
7784,Medicare,71,13650
7822,Private,63,10872
7878,Private,68,9606
7887,Private,57,6674
7907,Private,18,613
7911,Medicare,71,32613
7920,Private,19,31170
7930,Private,60,60197
7933,Private,54,35894
7989,Medicare,66,34865
7994,Private,45,38078
8020,Private,29,9225
8047,Private,61,26024
8048,Private,60,2647
8086,Medicare,73,38743
8105,Private,23,24449
8113,Medicare,66,11516
8184,Private,27,6128
8189,Private,18,2817
8206,Medicare,74,10499
8228,Private,45,15644
8229,Private,35,3990
8233,Private,50,4371
8244,Private,64,11690
8291,Private,40,17343
8393,Medicare,68,22518
8408,Medicare,83,14366
8427,Medicare,68,19660
8458,Private,51,8830
8502,Medicare,51,46896
8570,Medicare,57,17580
8631,Medicare,56,25806
8649,Private,33,29399
8663,Private,54,12491
8731,Private,59,5174
8772,Medicare,69,8167
8787,Private,21,6083
8800,Private,56,2612
8808,Private,19,6781
8844,Medicare,79,11107
8869,Private,33,2866
8884,Medicare,84,12726
8915,Medicare,56,39343
8963,Medicare,79,25665
8967,Private,53,4600
8979,Private,40,5670
8990,Medicare,47,14949
9061,Private,61,12649
9081,Medicare,75,7258
9084,Private,53,8641
9126,Medicare,76,10430
9128,Medicare,53,8588
9162,Private,34,3813
9166,Private,27,5581
9181,Private,53,8257
9206,Medicare,66,27704
9248,Medicare,80,13213
9274,Private,62,14413.5
9283,Private,54,12165
9303,Private,37,12291
9308,Medicare,55,34776
9313,Medicare,55,13775
9336,Medicare,77,20400
9348,Private,69,12592
9375,Private,44,33228
9382,Private,28,44606
9389,Private,52,11159
9419,Private,39,6397
9437,Private,28,6637
9478,Medicare,67,12276
9480,Private,64,8754
9511,Medicare,74,3045
9515,Private,46,23874
9522,Private,30,6021
9523,Private,36,2183
9534,Private,59,14437
9539,Medicare,44,15267
9622,Medicare,53,5852
9636,Private,71,7585
9650,Private,49,1577
9661,Private,56,37665
9672,Medicare,50,11412
9755,Medicare,68,3302
9758,Private,59,4474
9773,Medicare,80,18290
9811,Private,31,3557
9816,Medicare,70,29838
9832,Private,22,3334
9849,Medicare,77,3966
9858,Private,53,36907
9876,Private,60,10635
9907,Private,47,14362
9913,Private,60,4206
9914,Medicare,46,28339
9934,Private,47,23074
9957,Medicare,78,16680
9966,Medicare,66,22826
9972,Medicare,59,4793
9978,Private,58,8643
9992,Private,36,3400
10006,Medicare,70,12726
10012,Medicare,69,6190
10015,Medicare,62,19870
10021,Private,42,11457
10047,Medicare,51,8427
10075,Private,63,10535
10146,Private,29,670
10155,Medicare,48,2347
10190,Medicare,78,4977
10246,Private,44,14285
10289,Medicare,72,9971
10317,Private,54,4016
10350,Private,53,5446
10356,Private,62,1261
10377,Medicare,52,9186
10400,Medicare,71,12304
10401,Medicare,77,9907
10416,Medicare,52,8562
10422,Medicare,67,8097
10429,Private,46,38513
10445,Private,19,12855
10478,Medicare,73,9774
10490,Medicare,26,40919
10506,Private,43,8898
10512,Private,47,7298
10521,Private,52,7605
10536,Private,47,9665
10614,Medicare,63,21773
10628,Medicare,62,21238
10631,Private,22,15096
10656,Private,43,11119
10675,Private,50,15569
10701,Medicare,66,18455
10717,Private,38,4429
10726,Medicare,66,59945
10732,Medicare,74,3784
10760,Private,37,9694
10780,Private,19,7870
10814,Medicare,84,20387
10905,Private,20,341
10925,Private,18,12213.5
10980,Private,53,15796
11018,Medicare,67,13242
11079,Medicare,48,21840
11082,Medicare,76,31482
11107,Medicare,70,4725
11147,Private,55,14073
11171,Private,58,10478
11233,Medicare,60,10138
11309,Private,39,30835
11346,Private,59,2221
11356,Private,65,4128
11363,Medicare,51,54274
11388,Private,55,8151
11431,Private,62,19199
11432,Private,56,19787
11446,Medicare,62,19879
11454,Private,51,3976
11472,Medicare,49,8930
11565,Private,40,7056
11580,Private,19,14941
11582,Private,61,7556
11604,Medicare,72,3265
11618,Medicare,65,11661
11643,Private,60,8612
11748,Medicare,74,5146
11755,Private,42,4593
11760,Private,46,4500
11773,Private,47,6180
11818,Medicare,41,29736.666666666668
11819,Medicare,52,14867
11823,Private,26,5085
11846,Medicare,78,14114
11849,Medicare,72,7410
11851,Private,64,2756
11880,Medicare,76,6212
11941,Medicare,81,13999
11945,Private,58,18155
11993,Medicare,69,13957
12008,Medicare,55,11478
12021,Private,41,8585
12063,Private,52,4768
12090,Medicare,75,776
12093,Medicare,84,13437
12124,Medicare,36,5178
12146,Private,35,3735
12223,Private,46,7821
12234,Private,60,8517
12265,Medicare,70,8781
12274,Private,55,6750
12306,Medicare,80,5817
12342,Private,57,31458
12355,Medicare,38,23241
12361,Private,42,32555
12417,Private,56,24995
12483,Private,61,49495
12524,Medicare,70,8433
12530,Medicare,75,7090
12540,Medicare,67,20174
12541,Private,57,6919
12542,Medicare,76,20259
12547,Medicare,55,17191
12559,Private,25,4401
12584,Private,59,9612
12595,Private,62,20011
12637,Medicare,49,11962
12653,Medicare,51,18397
12659,Medicare,75,16973
12662,Medicare,77,4330
12692,Medicare,81,10152
12706,Private,62,21943
12720,Medicare,46,2819
12741,Medicare,39,8732
12794,Medicare,54,2654
12819,Medicare,78,7450
12839,Private,43,3733
12844,Private,56,-24
12902,Private,44,2307
12907,Private,23,5102
12978,Medicare,85,13365
12990,Private,19,5243
12992,Medicare,40,4470
12995,Medicare,61,19742
13033,Medicare,38,5319.25
13121,Medicare,71,5647
13177,Medicare,72,11278
13185,Medicare,48,9915
13229,Private,68,9986
13260,Medicare,80,17187
13282,Private,59,11510
13299,Private,45,4421
13305,Medicare,56,5307.5
13329,Medicare,69,17695.75
13341,Private,44,3643
13357,Private,21,13087
13401,Private,66,7003
13408,Private,60,4578
13425,Private,48,4888
13439,Private,50,7027
13477,Private,80,10374
13490,Medicare,61,6375
13493,Medicare,54,9969
13508,Private,64,6869
13529,Private,28,27326
13530,Private,51,25361
13627,Medicare,47,2016
13642,Medicare,78,21078
13647,Private,27,9307
13675,Medicare,73,7698
13711,Private,54,14035
13737,Private,50,27085
13794,Medicare,69,8791
13808,Private,23,4645
13819,Private,46,11946
13826,Medicare,47,28378
13844,Private,28,3090
13855,Medicare,58,5940
13922,Medicare,52,30980
13960,Private,46,28635
14010,Private,50,8616
14041,Medicare,85,10568.5
14052,Private,49,14200
14073,Medicare,68,4249
14087,Private,45,5970
14089,Medicare,69,13690
14094,Medicare,76,11258
14099,Medicare,51,3294
14121,Private,57,25457
14185,Medicare,40,10559
14191,Private,67,42947
14219,Medicare,66,10947
14230,Private,57,8982
14233,Private,54,4098
14282,Private,50,12298
14300,Medicare,49,26460
14308,Private,28,5056
14313,Medicare,67,6671
14315,Medicare,48,12990
14320,Private,22,16593
14323,Private,60,9057
14355,Medicare,47,13333
14383,Private,52,11254
14419,Medicare,43,20394
14425,Private,45,4751
14446,Medicare,65,3971
14448,Private,48,3963
14478,Medicare,69,4262
14480,Medicare,70,2417
14495,Private,54,10015
14540,Private,58,4166
14552,Private,46,24
14566,Medicare,48,25906
14621,Private,45,2805
14623,Private,50,4221
14634,Private,37,5959
14651,Medicare,67,9210
14689,Medicare,56,4208
14711,Private,47,9383
14722,Medicare,75,7297
14737,Private,61,4970
14754,Private,40,8229
14755,Medicare,52,6067
14766,Private,58,2616
14767,Private,35,2295
14836,Medicare,49,15739
14859,Private,62,8736
14860,Private,59,6965
14862,Medicare,62,12847
14864,Private,42,8569
14875,Medicare,44,7205
14885,Private,62,8770
14931,Private,60,6135
14970,Private,44,2363
14987,Medicare,54,30469
14998,Medicare,42,18372
15012,Medicare,72,36466.333333333336
15052,Medicare,52,38804
15081,Private,26,3579
15149,Private,52,9957
15153,Private,67,18912
15187,Private,64,15366
15206,Private,23,8860
15233,Private,34,6010
15246,Private,40,11207
15301,Medicare,76,8562
15370,Medicare,80,6589
15376,Medicare,73,6762
15414,Private,46,9439
15430,Private,32,12858
15474,Private,52,2234
15524,Medicare,49,16460
15537,Private,58,11474
15553,Private,20,3399
15571,Private,47,4355
15590,Medicare,55,26598
15607,Medicare,53,25722
15621,Private,33,4420
15625,Private,23,6464
15627,Private,56,10585
15637,Medicare,85,10790
15682,Private,38,5239
15726,Private,49,9912
15733,Private,55,19764
15737,Private,65,38445
15754,Private,50,6695
15817,Private,46,8434
15862,Private,65,8840
15904,Private,55,42418
15908,Private,43,3806
15912,Medicare,73,16469
15917,Private,48,5038
15926,Private,48,8731
15933,Medicare,46,11734.666666666668
15941,Private,34,17984
15975,Private,37,25560
15977,Medicare,55,38305
15992,Private,42,7460
15995,Private,33,12062
16033,Private,62,4742
16040,Medicare,41,21145
16082,Private,54,22396
16088,Medicare,76,12754
16102,Medicare,71,6537
16163,Medicare,66,8673
16181,Medicare,80,5090
16183,Private,18,5639
16203,Medicare,62,5250
16219,Private,31,2091
16306,Private,39,5443
16314,Private,53,11612
16342,Private,63,5529.25
16345,Private,52,8599
16363,Private,41,13245
16415,Medicare,55,21173
16420,Private,20,2070
16458,Private,44,9270
16468,Medicare,48,27112
16483,Private,22,5232
16492,Medicare,62,10110
16536,Private,53,6639
16580,Medicare,79,14655
16588,Private,61,3831
16602,Medicare,41,3036
16611,Medicare,41,8837
16635,Private,55,16579
16642,Private,58,4360
16676,Medicare,71,78
16684,Medicare,32,12252
16705,Private,52,4107
16714,Medicare,70,11768
16717,Private,41,10827
16731,Private,52,7500
16786,Private,40,13348
16792,Medicare,68,17589.5
16794,Medicare,75,13711
16807,Private,54,970
16812,Private,89,7244
16817,Medicare,68,4863
16822,Private,19,12186
16844,Medicare,66,9658
16864,Private,34,2256
16888,Private,48,40762
16902,Private,39,5101
16904,Medicare,46,1016
16976,Medicare,62,17256.5
16986,Private,15,688
17008,Private,47,8471
17078,Medicare,71,7691
17080,Private,30,8681
17111,Private,59,12947
17118,Private,45,24922
17126,Private,52,3625
17129,Medicare,53,7982
17142,Medicare,60,66130
17171,Medicare,80,9552
17172,Private,43,16211
17183,Private,55,5182
17206,Private,34,5099
17209,Private,29,2213
17214,Medicare,64,7022
17218,Medicare,69,25269
17237,Private,70,17806
17253,Private,49,58488
17278,Private,44,16897.333333333332
17299,Medicare,53,15598
17328,Medicare,59,11585
17338,Private,26,25372
17346,Private,54,11008
17365,Medicare,49,5609
17406,Medicare,53,24116
17414,Private,67,25055
17447,Medicare,40,3866
17451,Medicare,40,8109
17543,Private,32,7865
17551,Medicare,77,16515
17578,Private,48,3919
17587,Private,51,2836
17592,Private,23,6720
17638,Private,37,28187
17643,Private,40,4743
17655,Medicare,64,9195
17671,Private,48,3681
17676,Medicare,86,3991
17725,Private,17,593
17736,Private,42,5347
17773,Medicare,70,20662
17786,Private,56,27492
17788,Medicare,82,8877
17803,Medicare,73,14508
17808,Medicare,48,9235
17842,Private,55,5498
17853,Private,52,25029
17876,Private,48,4306
17882,Medicare,63,11507
17901,Medicare,52,3759
17902,Medicare,62,2859
17906,Medicare,80,2119
17931,Medicare,32,4801
17932,Private,46,44026
17955,Private,41,8478
17969,Medicare,76,4146
17981,Private,50,4209
17990,Medicare,78,6945
18006,Private,29,1505
18024,Private,24,979
18032,Medicare,56,10133
18044,Private,50,11576
18048,Medicare,65,5625
18065,Private,40,3880
18104,Medicare,35,4081
18131,Private,45,3977
18135,Medicare,79,14431
18153,Private,34,30944
18172,Private,29,24813
18177,Medicare,83,10977
18185,Medicare,53,9356
18186,Private,60,3172.5
18188,Private,39,6030
18231,Medicare,44,35200
18234,Private,64,11268
18269,Private,66,2910
18319,Medicare,53,1285
18353,Medicare,66,36000
18368,Medicare,71,21077
18445,Private,23,16226
18459,Medicare,72,20380
18489,Medicare,61,18679
18519,Medicare,46,5782
18525,Private,42,5925
18535,Private,42,3644
18572,Medicare,78,13009
18601,Private,51,19791
18644,Private,48,12947
18650,Private,22,2741
18673,Medicare,73,3993
18712,Medicare,59,26489
18725,Medicare,54,5936
18794,Private,29,11469
18797,Private,59,16085
18822,Private,45,38473
18916,Private,40,22830
18943,Medicare,69,9387
18965,Private,54,3210
18988,Medicare,84,8165
19040,Medicare,68,13772
19087,Medicare,74,10780.666666666666
19107,Medicare,65,13879
19116,Medicare,75,9694
19119,Medicare,51,20152
19131,Medicare,54,4455
19144,Medicare,54,15820
19149,Private,23,13051
19177,Private,59,29159
19183,Medicare,46,6758
19213,Medicare,36,25914
19216,Private,56,5502
19239,Medicare,77,8556
19263,Medicare,43,14113
19269,Private,37,13914
19286,Private,59,8535
19312,Medicare,59,3822
19338,Medicare,51,10992.666666666668
19345,Private,67,9748
19367,Private,58,28358
19377,Private,47,2865
19412,Private,23,37110.166666666664
19493,Private,42,45264
19496,Private,50,25264
19602,Private,61,4060
19616,Private,53,9180
19623,Medicare,61,15689
19626,Medicare,77,4957
19648,Medicare,71,13935
19671,Medicare,46,10266
19698,Private,56,18369
19699,Private,55,4043
19701,Private,51,16920
19713,Private,47,6130
19715,Private,21,2386
19771,Private,33,1344
19791,Private,55,17096
19840,Private,65,9889
19851,Medicare,64,12848
19908,Private,61,13700
19926,Private,65,7061
19938,Private,54,11040
19966,Private,57,6273
19970,Medicare,81,35805
19999,Medicare,68,7313
20060,Medicare,71,10276
20069,Private,59,29246
20102,Private,19,3275
20124,Medicare,54,18525.5
20134,Medicare,73,10095
20166,Medicare,70,15676
20192,Private,52,8270
20226,Medicare,72,14552
20262,Private,20,15581
20279,Medicare,48,39989
20289,Private,45,28694
20296,Private,64,14714
20320,Medicare,53,13899
20372,Medicare,58,8455
20450,Private,61,4994
20451,Medicare,69,51677
20459,Medicare,29,11248
20559,Private,56,10880
20566,Private,46,13685
20574,Private,58,15075
20577,Medicare,65,3354
20583,Private,73,24219
20587,Private,60,18032
20591,Private,37,6933
20595,Private,28,2196
20604,Private,44,4151
20624,Medicare,69,10430
20629,Private,71,5312
20657,Private,56,6328
20690,Medicare,52,10005
20713,Medicare,78,28522
20731,Private,34,4018
20744,Medicare,39,5702
20807,Medicare,46,4243
20835,Medicare,80,7593
20840,Private,53,4385
20868,Private,53,23257
20909,Private,40,6962
20918,Private,60,6390
20920,Private,23,34264.8
20923,Private,55,4359
20943,Private,60,12374
20947,Medicare,74,33224
21003,Medicare,67,1534
21015,Medicare,51,21528
21040,Medicare,71,24054
21043,Medicare,46,15706
21057,Medicare,82,37879
21109,Private,44,26063
21113,Private,43,9926
21141,Private,81,15497
21193,Private,49,5318
21220,Private,61,15117.5
21233,Medicare,78,13758
21244,Medicare,70,14031
21258,Private,67,11184
21259,Private,40,8937
21274,Medicare,54,9746
21290,Medicare,35,5274
21312,Medicare,76,80069
21335,Private,26,27846
21352,Private,42,9611
21388,Medicare,67,35473
21460,Private,42,19105.666666666668
21536,Medicare,69,7080
21542,Private,78,3669
21558,Private,36,15176
21573,Private,43,3554
21582,Private,50,7895
21596,Private,44,5485
21656,Private,18,15396
21667,Medicare,66,7116.666666666667
21698,Private,44,3931
21707,Private,60,7094
21732,Private,19,6061
21806,Medicare,44,1233
21829,Private,49,4852
21861,Private,46,5047
21874,Private,34,20019
21881,Medicare,57,8323
21888,Private,42,9317
21897,Private,34,4365
21914,Private,55,9784
21920,Medicare,81,17060
22017,Private,60,8120
22019,Medicare,61,12180
22028,Private,68,9659
22113,Medicare,77,11789
22114,Medicare,59,2804
22139,Medicare,69,24396
22173,Private,59,3756
22227,Medicare,71,14061
22252,Private,44,14388
22276,Private,53,13072
22281,Private,62,9348
22304,Medicare,78,22361
22311,Private,26,4543
22331,Medicare,73,2760
22341,Private,54,2847
22420,Private,51,16419
22442,Private,48,6656
22482,Private,44,15338
22562,Private,28,4011
22577,Medicare,75,8675
22618,Medicare,68,26295
22663,Medicare,56,6013
22674,Private,49,12390
22712,Private,54,4396
22756,Medicare,23,11328
22761,Medicare,48,60904
22816,Private,58,10329
22897,Private,54,17461
22921,Medicare,50,5867.166666666667
22945,Private,46,16680
22953,Private,53,11561
22963,Medicare,49,8903.2
23005,Private,67,10600
23028,Medicare,39,7240.5
23029,Private,37,5575
23059,Private,28,2247
23088,Private,40,3498
23111,Medicare,68,3969
23142,Private,44,11625
23234,Medicare,65,8530
23249,Medicare,79,12481
23250,Medicare,72,17370
23252,Private,64,36935
23264,Medicare,50,9533
23299,Private,63,8287
23329,Private,44,13515
23345,Private,52,8018
23352,Private,21,28528
23373,Private,80,13884
23394,Medicare,70,14486
23406,Private,75,13403
23514,Private,64,10704
23529,Medicare,71,16968
23568,Private,59,8366
23582,Private,61,4501
23632,Private,44,11528
23657,Private,30,5066.5
23658,Medicare,71,15383
23673,Private,45,4066
23675,Medicare,49,16015
23680,Medicare,67,32553.666666666668
23687,Private,46,5558
23694,Medicare,55,48547
23790,Medicare,74,19709
23875,Private,44,1650
23876,Medicare,50,12736
23924,Medicare,75,82164
23927,Medicare,62,6573
23949,Medicare,71,7222.6666666666661
23969,Private,63,15583
23980,Medicare,70,6045
24023,Private,48,91954
24077,Medicare,68,37815
24101,Private,42,38070
24114,Medicare,65,8964
24129,Medicare,48,25757
24132,Private,35,6849
24161,Private,43,12202
24174,Private,23,29985
24197,Private,39,4161
24211,Private,27,9090
24218,Private,47,2878
24221,Private,62,21684
24228,Private,57,2935
24232,Private,50,31274
24242,Medicare,81,15723
24257,Private,25,3798
24271,Medicare,55,12497
24273,Private,18,2187
24276,Medicare,48,3739.5
24361,Medicare,55,15706
24378,Private,20,20649
24383,Medicare,46,20908
24385,Medicare,68,7936
24387,Private,65,16362
24435,Medicare,88,10366
24475,Private,79,9536
24477,Private,45,17334.5
24486,Private,56,74375
24499,Private,53,18842
24510,Medicare,46,4041
24541,Medicare,67,6047
24588,Private,61,9109
24603,Medicare,66,7161
24617,Medicare,78,17329
24637,Private,24,3288
24672,Private,34,3916.5
24687,Medicare,49,20071
24697,Private,45,15476
24708,Private,56,27328
24714,Private,51,32057
24780,Private,51,3824
24805,Private,40,2211
24807,Medicare,41,15809.5
24845,Medicare,74,11584
24867,Private,25,3617
24915,Private,53,93299
24935,Medicare,69,9659
24977,Private,59,19485
24982,Private,58,16110
24985,Private,64,3929
24990,Medicare,64,14960
25020,Medicare,66,31190
25045,Private,63,35655
25065,Private,53,6970
25083,Private,59,3563
25084,Private,46,7778
25104,Medicare,66,5838
25122,Private,55,25507
25131,Medicare,72,11615
25155,Medicare,78,5920
25157,Medicare,61,20859
25188,Medicare,70,7467
25206,Private,48,12757
25208,Medicare,56,9236
25216,Medicare,57,47903
25259,Private,40,2644
25268,Private,30,1002
25270,Private,55,3255
25289,Private,63,20076
25315,Private,72,44898
25350,Medicare,65,5599
25378,Private,47,9477
25405,Private,45,15690
25406,Private,62,7952
25462,Private,60,7899
25463,Private,58,10065
25475,Private,58,46750
25506,Private,38,9770
25532,Private,38,10190
25555,Private,23,15562
25574,Medicare,72,15316
25600,Private,19,3649
25605,Medicare,81,30745
25635,Medicare,61,25713
25655,Medicare,45,3939
25658,Medicare,68,24463
25683,Medicare,68,9787
25692,Medicare,56,15967
25705,Medicare,66,9762
25711,Medicare,303,8329
25734,Private,62,8597
25773,Medicare,76,14150
25774,Medicare,73,22634
25806,Private,51,7255
25825,Medicare,66,50112
25853,Private,63,67561
25876,Medicare,40,3874.666666666667
25880,Private,41,54475
25886,Private,36,10633
25917,Private,60,12605
25934,Private,59,4785
25953,Private,34,13693
26000,Medicare,83,8499
26010,Medicare,80,15384
26016,Medicare,40,6468
26036,Medicare,45,3797
26077,Private,55,9346
26079,Private,52,6697
26114,Medicare,41,3870
26119,Private,47,8751
26133,Medicare,58,35412
26142,Medicare,50,3947
26218,Private,42,43515
26222,Private,61,13319
26228,Private,58,7234
26283,Medicare,85,59799
26342,Private,22,10836
26353,Medicare,63,3228
26431,Medicare,78,227
26433,Medicare,67,25314
26477,Private,53,5070
26499,Medicare,35,3885
26502,Medicare,79,10220
26521,Medicare,74,18379
26535,Private,42,7971
26538,Private,47,13528
26554,Private,28,3035
26556,Medicare,86,20442
26557,Private,57,4285
26620,Medicare,44,6875
26648,Medicare,48,26070
26676,Private,42,34186
26678,Private,78,6735
26705,Medicare,45,3939
26717,Medicare,81,11506
26727,Medicare,75,19887
26733,Private,18,7518
26757,Private,58,5109
26781,Medicare,76,8384
26787,Private,43,3525
26816,Medicare,62,4524
26845,Private,26,13112
26860,Medicare,71,12596
26868,Medicare,73,5341.75
26887,Private,46,7027
26901,Medicare,26,6939.5
27047,Medicare,51,20605
27077,Medicare,48,39503
27088,Private,56,17114
27096,Private,53,2666
27107,Medicare,80,10007
27116,Medicare,53,6379
27125,Private,20,3921
27144,Private,63,8529
27170,Private,46,4454
27172,Medicare,56,6828
27210,Medicare,23,10793.5
27229,Medicare,60,6523
27232,Private,65,53065
27256,Medicare,71,9514
27266,Private,61,11354.5
27271,Private,62,26841
27291,Private,43,18703
27304,Medicare,76,11483
27367,Medicare,80,4877
27382,Private,54,24848
27391,Private,80,11193
27396,Medicare,50,2395
27398,Private,53,3342
27412,Private,20,19113
27464,Medicare,53,8918
27468,Private,56,14406.5
27476,Medicare,51,2839
27477,Private,53,14173
27480,Private,21,3757
27500,Private,60,15894
27565,Private,47,8270
27574,Medicare,46,14091.5
27587,Private,20,8242
27603,Private,79,6780
27606,Medicare,49,9998
27609,Medicare,79,15780
27657,Private,43,7485.5
27666,Medicare,69,3097
27694,Medicare,55,33403
27695,Medicare,58,18474
27735,Medicare,71,6100
27767,Private,53,5259
27799,Medicare,33,5602
27800,Medicare,64,14245.428571428571
27809,Medicare,84,8760
27812,Private,29,6848
27816,Medicare,44,12859
27865,Medicare,73,14645
27872,Private,43,4367
27877,Medicare,44,10090
27879,Medicare,50,6170.5
27894,Medicare,71,17784.5
27897,Private,47,3851
27961,Medicare,65,26045
27971,Private,57,5341
27978,Private,61,11399
28008,Medicare,65,10992
28035,Private,59,9960
28047,Private,58,21400
28058,Private,34,3191
28077,Private,39,32235
28082,Medicare,76,22695
28086,Medicare,43,10889
28104,Private,60,2872
28114,Medicare,26,1335
28136,Medicare,73,16121
28142,Medicare,80,656
28170,Medicare,74,5986
28182,Private,19,16877
28233,Private,46,1352
28239,Medicare,64,7440
28240,Medicare,39,3885
28247,Private,24,18071
28253,Private,58,12315
28280,Private,35,8987
28294,Private,73,24571
28305,Private,34,15450
28326,Private,54,9813
28338,Medicare,44,1730
28364,Private,55,6389
28369,Private,49,11363
28422,Private,49,13457
28423,Medicare,52,22089
28450,Medicare,65,10216
28460,Medicare,49,18088
28461,Medicare,65,27281
28515,Medicare,65,12522
28550,Medicare,75,11687
28552,Medicare,78,21161
28556,Medicare,80,14360
28565,Medicare,72,2744
28594,Private,26,3376
28637,Private,45,7229
28655,Private,20,5100
28676,Private,62,7351
28693,Private,37,4787
28719,Private,23,4851
28720,Private,51,9463
28729,Medicare,54,5292
28735,Medicare,27,4878
28739,Private,19,3251
28744,Private,42,114351
28771,Private,23,6404
28789,Medicare,68,1262
28794,Private,50,16610
28808,Private,61,33094
28846,Private,24,2644
28868,Medicare,47,29429.666666666668
28901,Private,63,7580
28903,Private,46,252
28910,Private,52,10030
28921,Medicare,69,10314
28953,Private,50,5236
29000,Private,47,6577
29005,Private,45,15372
29026,Private,47,10918
29031,Private,53,9296
29059,Medicare,44,8659
29060,Private,20,1629
29111,Medicare,77,7424
29115,Medicare,56,13275
29137,Medicare,67,8326.5
29143,Private,28,4467
29167,Private,59,8414
29172,Private,54,15132
29176,Medicare,68,32646.5
29186,Private,42,5798
29193,Medicare,67,3888
29200,Private,29,13056
29232,Private,50,7411
29244,Medicare,69,3183
29254,Private,63,16119
29257,Private,58,5750
29293,Medicare,73,21115
29315,Private,59,9251
29327,Medicare,67,31947
29328,Medicare,35,6150
29360,Private,63,2835
29361,Private,61,5425
29367,Private,28,519
29390,Private,45,19529
29422,Private,53,9950
29427,Private,65,14477
29453,Private,58,7186
29476,Private,40,5960
29553,Medicare,52,4480
29554,Private,47,7982
29560,Medicare,68,17736
29570,Medicare,72,37091
29576,Medicare,60,3020
29584,Private,44,9545
29586,Private,36,10734
29591,Private,37,3376
29593,Private,53,3048
29598,Private,46,7204
29622,Private,52,2302
29631,Medicare,79,27838
29638,Private,48,9495
29664,Private,52,6013
29703,Private,19,5658
29795,Private,62,6585
29812,Private,30,69769
29862,Medicare,39,7193.3333333333339
29878,Private,47,3003
29905,Private,54,14627
29971,Medicare,59,5134
29981,Private,64,12186
29985,Private,70,27849
29999,Private,62,9599
30004,Private,68,4494
30020,Medicare,77,10812
30032,Medicare,51,3781
30034,Private,37,5224
30051,Medicare,66,7302
30086,Medicare,42,7268
30093,Private,62,2730
30113,Private,72,6118
30153,Medicare,83,11211
30160,Private,64,20745
30183,Medicare,34,4493
30195,Private,28,581
30198,Medicare,38,22302
30210,Private,51,24445
30215,Private,51,3128
30217,Medicare,75,10630
30219,Medicare,67,16200
30232,Medicare,60,24209
30240,Medicare,78,11205
30245,Medicare,51,2242
30253,Private,55,21905
30310,Medicare,66,11658
30320,Medicare,53,2375
30334,Medicare,69,34183
30383,Medicare,82,5192
30408,Private,64,17852
30432,Medicare,81,34048
30440,Medicare,70,10511
30441,Private,45,19835
30452,Medicare,58,2932
30481,Medicare,48,6667
30525,Private,22,1177
30556,Private,57,3170
30561,Medicare,49,11634.333333333334
30604,Medicare,80,2317
30633,Private,53,8793
30637,Private,52,23231
30638,Medicare,56,32778
30660,Medicare,61,10288
30679,Medicare,69,28815
30685,Private,51,13711
30693,Medicare,43,11503
30694,Private,59,2406
30697,Medicare,48,9804
30757,Medicare,74,42367
30767,Private,45,6716
30802,Private,60,3020
30810,Medicare,74,5780
30812,Medicare,68,3851
30817,Medicare,72,643
30820,Private,49,5021.666666666667
30829,Private,60,17788.666666666668
30832,Private,42,11571
30846,Private,57,9863
30909,Private,62,11811
30914,Private,54,2480
30923,Private,39,2340
30930,Private,64,9915
30939,Private,21,1117
30988,Private,57,11524
30992,Medicare,62,11234
31029,Medicare,67,12889
31030,Medicare,32,41446
31056,Medicare,67,12567
31128,Medicare,77,14866
31135,Medicare,77,7226
31145,Private,17,840
31170,Private,51,4324
31186,Private,37,2543
31187,Medicare,84,14004
31188,Private,43,3825
31189,Private,59,8986
31193,Medicare,60,9490.5
31202,Private,50,9854
31203,Medicare,74,20187
31204,Private,85,3772
31206,Medicare,72,19853
31221,Private,55,11165
31226,Medicare,78,10995
31260,Medicare,66,14767
31261,Private,42,36615
31276,Medicare,53,16595
31277,Medicare,44,709
31294,Medicare,46,104913
31297,Medicare,71,16810
31305,Private,58,20048
31322,Private,54,27288
31355,Private,39,2697
31357,Medicare,54,8328
31364,Medicare,66,18611
31368,Private,38,1813
31376,Medicare,32,4925
31434,Private,59,11550
31439,Medicare,72,11003
31446,Private,45,17104
31471,Private,26,1116
31473,Private,54,5267
31479,Private,54,8666
31511,Medicare,64,17184
31564,Private,46,7176
31610,Private,63,7589
31626,Medicare,67,15257
31634,Medicare,62,24900
31703,Private,56,24555
31709,Medicare,67,8320
31712,Medicare,66,37470
31751,Medicare,56,24974
31756,Private,24,13221
31784,Private,31,8992
31806,Private,30,15663
31835,Private,43,2419
31841,Private,56,10396
31865,Private,28,28491
31866,Medicare,66,18594
31875,Private,58,2654
31881,Private,44,4206
31895,Private,22,5668
31911,Medicare,72,6013
31925,Private,49,2881
31972,Private,57,645
31977,Private,52,12091
32009,Private,47,468
32024,Medicare,33,2739
32026,Medicare,48,15527
32045,Private,57,11391
32064,Medicare,82,12223
32079,Private,23,9425
32081,Private,43,10300
32096,Private,30,12031
32099,Private,37,42266
32106,Medicare,50,16806
32112,Private,52,989
32125,Medicare,62,58844
32138,Medicare,43,1512
32181,Medicare,74,65816
32194,Private,37,4258
32210,Medicare,71,7086
32247,Medicare,63,37723
32261,Private,53,27266
32262,Private,61,6475
32282,Medicare,69,9748
32287,Medicare,68,18344
32356,Private,62,3180
32358,Private,46,16175
32360,Private,49,9706
32367,Medicare,64,16917.5
32393,Medicare,80,22642
32422,Medicare,48,8003
32430,Private,46,1100
32432,Private,20,638
32438,Private,52,34620
32440,Medicare,73,15245
32453,Medicare,45,3266.5
32483,Private,60,4067
32485,Private,45,3925
32493,Medicare,46,5542
32512,Medicare,31,24964
32528,Private,58,9617
32543,Medicare,71,6219
32559,Medicare,69,11988
32608,Private,32,3616
32635,Medicare,87,13800
32658,Private,48,24129.5
32673,Private,69,3847
32688,Private,59,3557
32691,Private,61,7326
32713,Private,53,14518
32720,Medicare,67,11801
32726,Private,56,6499
32736,Private,58,5307
32740,Medicare,78,2989
32750,Private,49,20627
32768,Private,62,16150
32807,Medicare,81,8690
40000,Medicare,51,46965.75
40004,Medicare,53,9875
40042,Private,65,12469
40057,Private,55,38242
40068,Private,64,18741
40085,Private,34,28496
40120,Medicare,75,13340.5
40133,Private,63,10561
40194,Medicare,66,20404
40288,Private,57,11230
40388,Medicare,74,7794.666666666667
40412,Medicare,35,5691
40461,Private,50,29488.5
40610,Private,65,12943
40706,Medicare,72,25323
40715,Medicare,41,26285
40724,Private,37,22775
40761,Private,49,6507
40762,Private,23,3038
40850,Private,41,17133
40851,Private,62,29547
40866,Medicare,59,19875
40867,Private,28,56243
40876,Medicare,83,5472
40913,Medicare,88,3165
40973,Private,61,2566
40976,Private,27,13536
40988,Private,59,12225
41016,Private,78,33198
41030,Private,47,6838
41050,Private,58,3491
41163,Medicare,78,17395
41224,Private,60,10557
41234,Medicare,69,17520
41336,Private,24,3889
41370,Private,49,2664
41409,Private,53,9440
41414,Medicare,46,6872
41430,Private,31,7234
41515,Private,62,6149
41526,Private,62,24452
41565,Private,63,13547
41621,Private,54,13589.5
41682,Medicare,80,19045
41719,Private,33,26642.5
41729,Medicare,56,29949
41795,Medicare,49,19796
41803,Private,48,29700
41816,Private,47,363
41830,Medicare,76,12907
41882,Medicare,77,23141
41891,Medicare,62,10425
41935,Private,58,4295
41943,Private,57,19116
41966,Medicare,77,979
42013,Medicare,77,4027
42031,Private,33,25789
42054,Private,44,21273
42055,Medicare,65,10691.4
42062,Medicare,80,24885
42071,Private,46,13168
42091,Private,60,6186
42217,Medicare,42,6096
42292,Private,64,4309
42300,Private,53,5425
42351,Private,60,7350
42360,Medicare,68,11674
42385,Medicare,71,15615
42396,Private,48,1231
42397,Private,20,6249
42404,Medicare,69,76337
42430,Medicare,81,5135
42437,Medicare,77,38865
42484,Private,45,4528
42519,Medicare,53,7042
42587,Private,63,1283
42697,Private,41,5205
42733,Medicare,68,7232
42739,Private,46,8245
42752,Private,62,17002
42753,Medicare,41,22267
42811,Medicare,77,18620
42813,Medicare,47,4813
42815,Private,54,32698
42830,Medicare,76,5524
42866,Private,31,6359
42875,Private,58,4620
42894,Private,59,2987
42904,Medicare,66,177304
42905,Medicare,80,10848
42935,Medicare,24,33489
43003,Medicare,54,5370
43061,Private,45,9015
43107,Private,62,7295
43120,Medicare,83,8015
43121,Medicare,70,37460
43128,Medicare,45,18364.666666666668
43183,Private,50,9660
43187,Medicare,56,4537
43209,Medicare,72,9186
43305,Medicare,25,9333
43367,Medicare,47,7102
43446,Medicare,66,15431
43552,Medicare,52,255
43566,Medicare,54,7455
43613,Medicare,62,1959
43644,Medicare,36,420
43725,Private,55,3303
43732,Private,47,8080
43741,Private,52,6450
43812,Medicare,67,21654
44016,Medicare,48,6075
44044,Medicare,73,4172
44065,Private,66,26171
44128,Private,51,21803
44190,Medicare,49,34524
44234,Private,51,4252
44388,Private,53,5031
44430,Private,52,3105
44530,Private,61,3288
44597,Medicare,82,10459
44624,Medicare,79,5800
44630,Medicare,67,12648
44677,Private,22,4570
44715,Private,55,9671
44722,Medicare,56,10738
44724,Medicare,66,6976
44748,Medicare,68,6090
44751,Medicare,65,5359.5
44797,Medicare,75,13589
44799,Medicare,74,8627.5
44884,Medicare,66,8993
44890,Medicare,74,9838
44921,Private,78,14549
44922,Medicare,59,11880
44996,Medicare,68,5549
45083,Private,60,35858
45181,Private,49,5429
45248,Medicare,68,1412
45273,Private,63,17400
45284,Medicare,65,2719
45329,Medicare,70,17147
45342,Medicare,52,5497
45355,Private,38,22360
45395,Medicare,57,6968
45458,Medicare,49,4501
45542,Private,29,4028
45575,Medicare,65,5664
45576,Private,27,13820
45612,Private,53,14037
45655,Private,46,26991
45672,Medicare,72,4706
45723,Private,43,14562
45727,Private,64,8174
45768,Private,34,5974
45845,Private,38,2960
45849,Private,60,11284
45885,Private,49,13836
45910,Medicare,68,11625
45961,Private,59,5990
45962,Private,64,6708
46011,Medicare,57,4008
46041,Private,60,22965
46119,Medicare,84,18699
46132,Medicare,38,7833
46187,Medicare,51,5480
46189,Private,21,9439
46223,Private,52,4796
46243,Medicare,81,8996
46262,Medicare,36,9440
46267,Private,27,3076
46487,Medicare,73,8806
46528,Private,52,8237
46538,Medicare,52,15754
46586,Private,55,12580.5
46615,Private,43,11211
46634,Private,45,7452
46659,Medicare,47,8813
46756,Private,19,4872
46796,Private,51,12764
46815,Private,50,5412
46820,Private,63,5825
46853,Medicare,64,8612
46904,Medicare,51,6696.2
47000,Private,64,842
47003,Medicare,60,17849
47077,Medicare,78,15413
47118,Medicare,69,35345
47157,Private,63,10344
47271,Medicare,65,15332
47309,Medicare,72,8805
47381,Private,59,3253
47435,Medicare,74,10688
47448,Private,54,18906
47460,Private,43,16423
47483,Medicare,79,12932
47563,Private,22,4915
47582,Private,49,8468
47591,Private,19,20478
47614,Medicare,43,22408
47829,Private,63,43723
47875,Private,54,15145
47930,Medicare,87,7277
47941,Private,58,5807
47953,Medicare,75,4936
47955,Medicare,51,638
47974,Medicare,74,12974
48051,Medicare,69,1028
48058,Medicare,88,5029
48095,Medicare,83,2583
48100,Medicare,76,11585
48143,Medicare,84,5393.5
48154,Private,56,4642
48174,Private,35,30022
48177,Private,20,3803
48196,Private,51,6861
48217,Medicare,71,9779
48284,Private,22,782
48292,Private,59,32900
48314,Private,47,37810
48320,Medicare,79,18706
48380,Private,70,10177
48417,Medicare,63,19055
48461,Private,43,16657
48524,Medicare,74,13265
48555,Private,65,22842
48601,Medicare,51,4584
48640,Private,47,14042
48693,Medicare,45,4154.25
48707,Medicare,31,5023
48730,Medicare,67,4001
48755,Medicare,66,5831
48885,Private,56,27210
48929,Private,57,9919
49031,Medicare,67,2550
49102,Medicare,70,33741
49104,Medicare,44,7650
49225,Medicare,75,11447
49370,Medicare,48,5170
49435,Medicare,48,16002
49460,Private,56,1303
49482,Medicare,34,359
49513,Medicare,59,3310
49561,Private,49,6050
49565,Medicare,73,21799
49683,Medicare,40,8723
49727,Medicare,60,9723
49777,Medicare,41,574
49841,Medicare,72,7042
49884,Private,19,842
49896,Medicare,58,2934
49925,Medicare,51,65631
49952,Private,38,19950
49963,Medicare,52,15584
49984,Medicare,53,16209
50006,Private,60,2705
50020,Private,22,10631
50089,Private,61,24185
50094,Private,41,39448
50139,Medicare,66,1339
50161,Medicare,69,4211
50164,Private,50,7015
50212,Private,45,8788
50252,Private,61,15441
50261,Private,61,5275
50285,Private,54,23795
50286,Medicare,86,-862
50289,Private,58,9303
50305,Private,22,10845
50334,Medicare,60,20140
50361,Medicare,61,21513
50362,Private,64,24860
50370,Medicare,50,3656
50447,Medicare,54,10674
50462,Medicare,51,16742
50479,Private,55,7509
50487,Medicare,68,7426
50514,Private,54,14662
50547,Private,26,1788
50561,Private,32,11513
50575,Medicare,71,8211
50603,Private,56,3025
50620,Medicare,59,13273
50634,Private,60,10920
50722,Private,54,15533
50733,Private,54,1571
50863,Medicare,75,24251
50879,Private,41,9652
50880,Private,53,10163
50882,Medicare,49,5541
50885,Private,53,9894
50962,Private,48,5242
50991,Medicare,74,11886
51021,Medicare,57,21876
51076,Private,59,4829
51091,Medicare,71,2911
51109,Medicare,70,3100
51178,Private,55,4230
51390,Private,32,4758
51401,Medicare,59,3711
51404,Private,24,9542
51482,Medicare,54,4595
51490,Private,27,1239
51493,Private,69,4315
51528,Medicare,65,10163
51545,Medicare,77,13069
51557,Medicare,25,9045
51655,Medicare,71,4375
51660,Private,48,2768
51755,Private,52,6857
51796,Private,54,27169
51829,Medicare,62,9120
51986,Medicare,72,7623
52012,Medicare,45,3642
52034,Medicare,87,50482
52087,Medicare,76,10058
52136,Medicare,68,11154
52188,Medicare,76,11775
52197,Medicare,70,8701
52311,Medicare,75,9673
52342,Private,48,5536
52359,Private,20,16485
52370,Private,57,65529
52402,Private,51,6195
52411,Medicare,61,1835
52452,Medicare,51,4154
52484,Medicare,76,6848
52490,Medicare,70,11320
52504,Private,38,8966
52518,Private,23,2072
52551,Medicare,57,5705
52574,Medicare,74,10169
52622,Medicare,70,16976.5
52680,Medicare,68,8460
52728,Medicare,70,17577
52762,Medicare,66,21507
52816,Medicare,81,12262.5
52835,Medicare,40,3015
52878,Private,53,41351
52898,Medicare,65,36820
52899,Private,76,12668
52931,Private,23,790
52978,Private,62,14935
52985,Private,41,36943
53012,Medicare,60,6756
53013,Private,54,13136
53024,Private,69,10545
53149,Private,49,31790
53150,Private,31,3061
53173,Medicare,77,17323
53220,Private,59,7785
53283,Private,23,17884
53342,Private,69,17327
53425,Medicare,69,14429
53440,Medicare,46,9894
53492,Medicare,63,35436
53584,Medicare,68,8877
53633,Private,52,5100
53636,Medicare,58,6405
53664,Medicare,75,13029
53763,Medicare,70,14866
53787,Medicare,71,6911.5
53804,Private,52,14456
53812,Private,29,59513
53861,Private,22,20767
53878,Medicare,51,17260
53944,Private,51,48745
54043,Medicare,72,34797
54073,Private,64,15819
54077,Medicare,73,3736
54083,Private,40,18502
54145,Medicare,79,6294
54195,Private,59,15967
54245,Medicare,45,17090
54281,Private,65,9561
54345,Medicare,74,12863
54381,Medicare,59,4748
54408,Medicare,73,839
54444,Medicare,85,18415
54452,Medicare,65,10661
54465,Private,58,9263
54486,Medicare,66,2417
54498,Private,53,4779
54502,Private,65,15807
54526,Private,49,8915
54585,Medicare,89,9421
54587,Private,52,10113
54610,Private,60,2804
54616,Private,58,1782
54703,Private,22,3990
54721,Medicare,58,13047
54736,Medicare,53,26082
54764,Medicare,78,54731
54822,Private,59,13053
54892,Medicare,34,1873
54922,Medicare,59,51873
54945,Medicare,74,16369
54961,Private,64,10825
54968,Private,22,28644
55036,Private,65,18121
55069,Private,50,710
55094,Medicare,57,11486
55105,Private,22,3565
55106,Private,58,11142
55115,Medicare,60,29467
55163,Private,54,9170
55180,Medicare,55,30626
55265,Private,64,51311
55272,Private,64,14496
55287,Medicare,60,12010
55365,Private,33,5447
55370,Medicare,74,9490
55544,Medicare,55,3953
55570,Medicare,67,16007
55672,Private,56,59842
55722,Medicare,54,65400
55731,Medicare,67,10004
55778,Medicare,52,3617
55841,Medicare,47,716
55909,Medicare,46,4882
55931,Private,22,5102
55972,Medicare,74,35877
56027,Medicare,44,5565
56046,Medicare,67,13030
56098,Private,44,5523
56112,Medicare,78,6541.5
56130,Private,45,22733
56133,Medicare,51,2823
56168,Private,30,5647
56179,Medicare,62,8692.5
56210,Medicare,88,5552
56279,Private,66,5467
56285,Private,28,8108
56290,Private,60,995
56301,Private,53,11869
56334,Private,70,7357
56339,Medicare,77,9787
56340,Private,57,7897
56342,Medicare,62,2543
56348,Private,49,5538
56407,Private,55,7845
56427,Medicare,49,17585
56460,Medicare,64,24515
56472,Private,60,15720
56611,Medicare,80,7925
56642,Medicare,60,7442
56930,Private,51,6221
57032,Private,50,-558
57083,Private,61,8035
57093,Private,57,11159
57109,Private,20,4998
57129,Private,56,9902
57187,Medicare,71,10089
57231,Private,52,11605
57306,Medicare,71,76253
57330,Medicare,78,5680
57492,Medicare,69,1276
57637,Medicare,73,7152
57645,Private,61,8524
57663,Private,52,12187
57731,Private,62,15151
57737,Private,26,9144
57741,Medicare,66,35178
57763,Private,65,8930
57815,Private,62,21190
57865,Medicare,74,5972
57872,Medicare,42,11721
57901,Medicare,76,16024
58019,Private,64,22240
58077,Private,54,11970
58135,Medicare,52,19657
58155,Medicare,68,11850
58180,Private,53,3421
58187,Private,55,14262
58213,Private,39,24669
58214,Private,46,6170
58242,Medicare,58,10257
58264,Medicare,43,4125
58265,Private,60,8309
58278,Medicare,35,11431
58305,Private,45,6030
58351,Medicare,73,10098
58373,Private,47,8242
58433,Medicare,47,9081.75
58451,Medicare,67,20001
58508,Medicare,63,8306
58518,Private,19,8022
58519,Medicare,72,16142
58631,Medicare,83,11358
58700,Private,56,6788
58723,Medicare,65,3098
58753,Private,21,16129
58796,Medicare,40,5712
58811,Private,44,7174
58862,Medicare,62,31693
58895,Private,48,4753
58948,Medicare,81,10200
59039,Medicare,65,53314
59053,Private,54,3310
59104,Private,23,1742
59194,Medicare,48,30042
59199,Medicare,67,8341
59210,Medicare,71,4787
59246,Private,56,9982
59270,Private,66,10494
59314,Medicare,69,13638
59343,Private,70,4640
59469,Medicare,68,13043
59494,Private,61,6295
59495,Medicare,71,14027
59499,Medicare,67,18766
59547,Medicare,73,7316
59592,Private,45,11502
59657,Medicare,63,31392
59703,Private,67,795
59720,Private,57,7074.5
59742,Private,53,9403
59744,Private,25,5385
59797,Private,46,3450
59822,Private,62,38969
59858,Private,53,12812
59917,Medicare,80,5385
59922,Private,21,6557
59960,Medicare,83,8311.5
60104,Medicare,60,20176
60106,Private,55,25423
60122,Private,62,1864
60169,Medicare,82,23880
60198,Medicare,72,22653
60219,Private,43,8675
60295,Private,40,10042.5
60347,Private,49,7010
60432,Private,46,28128
60463,Private,59,11781
60506,Medicare,78,4032
60660,Private,57,6849
60702,Medicare,68,8642
60735,Medicare,86,9288
60775,Private,41,18048
60776,Private,67,8872
60887,Medicare,66,7859
60893,Private,63,80617
60933,Private,42,6946
60947,Medicare,55,57845
60952,Medicare,69,10583
60985,Private,59,9952
60994,Medicare,64,13090
61005,Private,68,8323
61007,Private,42,3585
61024,Medicare,87,2586
61056,Medicare,84,4343
61201,Medicare,81,5505.5
61249,Medicare,60,4747
61378,Private,63,6367
61434,Medicare,46,4899
61441,Medicare,66,5306
61455,Medicare,79,8620
61458,Medicare,60,7843
61516,Private,61,11979
61562,Medicare,79,17755
61588,Private,60,9554
61597,Medicare,72,16420
61611,Medicare,70,14189
61648,Medicare,57,13454
61658,Medicare,81,4548
61663,Private,66,18939
61676,Private,47,13395
61683,Medicare,61,11833
61687,Private,56,975
61771,Private,51,6190
61794,Private,25,8109
61809,Medicare,36,1944
61823,Medicare,80,7839
61825,Medicare,66,8424.75
61828,Medicare,59,9278
61877,Private,58,39797
61904,Medicare,69,4152
61948,Private,56,9731
62026,Private,53,6047
62033,Medicare,40,-154
62141,Medicare,50,4141
62169,Medicare,59,17608
62186,Medicare,61,23118
62248,Medicare,87,14023
62259,Private,60,1440
62298,Private,75,6310
62343,Medicare,55,14190
62344,Private,63,73430
62431,Medicare,63,2133
62479,Medicare,57,12359
62575,Private,56,15753
62603,Private,47,14340
62654,Private,40,10939
62691,Medicare,66,22835
62733,Medicare,58,6887
62751,Private,43,521
62958,Medicare,70,15645
62974,Private,39,6814
63009,Medicare,59,36977
63024,Private,46,15701
63031,Private,53,29666
63053,Private,63,76323
63058,Medicare,66,12460
63109,Medicare,72,8393
63116,Medicare,55,8429.5
63187,Private,53,55812
63220,Private,26,2310
63245,Medicare,76,13414
63282,Private,53,8980
63307,Private,56,2864
63325,Medicare,75,7470
63368,Medicare,75,8297
63402,Private,54,18470
63403,Private,43,4061
63405,Medicare,76,8267
63439,Medicare,81,2579
63471,Medicare,56,20812
63496,Private,48,73901
63509,Private,35,20007
63525,Private,47,18515
63581,Private,64,16727
63601,Medicare,69,3315
63621,Medicare,66,20448
63672,Medicare,86,24472
63693,Medicare,44,8404
63755,Medicare,66,9175
63777,Medicare,69,30067
63781,Private,50,12586
63792,Private,64,11678
63852,Private,57,4043
63938,Private,60,8144
63943,Medicare,66,5689
63958,Medicare,40,9740
63993,Private,39,19037
64041,Private,43,6660
64110,Private,69,918
64191,Medicare,70,16954
64195,Private,60,2122
64253,Private,27,23510
64260,Private,80,19896
64270,Private,20,5839
64283,Medicare,70,25346
64311,Medicare,74,8409
64315,Medicare,63,6816
64411,Medicare,69,18274
64414,Private,42,626
64432,Private,52,9647
64435,Private,59,7269
64450,Medicare,85,2335
64502,Medicare,70,16797
64663,Private,59,4693
64687,Medicare,67,11469
64719,Medicare,34,11319
64721,Medicare,65,12628
64741,Private,39,4205
64766,Private,54,6420
64771,Private,20,3434
64772,Private,54,5363
64780,Private,53,7575
64793,Medicare,80,2443
64796,Private,62,11970
64825,Private,43,9290
64830,Private,64,50783
64844,Medicare,52,4088
64897,Private,37,7480
64992,Private,51,26777
64994,Private,73,25514
65090,Medicare,71,18788
65126,Medicare,71,13552
65192,Private,44,1425
65240,Medicare,71,6658
65255,Private,52,12730
65310,Private,35,17099
65313,Medicare,71,12105
65401,Private,62,23358.5
65407,Medicare,74,23203
65421,Medicare,64,12174
65441,Private,67,802
65465,Medicare,76,14277
65484,Medicare,80,15818
65516,Medicare,58,5574
65556,Medicare,60,16653
65570,Medicare,22,29850
65575,Medicare,86,2859
65719,Medicare,69,8666
65741,Medicare,71,15780
65779,Private,58,6359.5
65786,Medicare,49,5802
65837,Private,67,51316
65879,Medicare,74,8640
65883,Medicare,49,9569
65975,Medicare,67,10798
65994,Private,20,9180
66046,Medicare,59,8648
66054,Medicare,79,6140
66068,Private,65,5985
66069,Private,64,5814
66115,Private,21,5110
66123,Medicare,66,4041
66133,Medicare,75,8411
66143,Medicare,79,24741
66144,Medicare,74,8745
66193,Medicare,82,5833
66196,Private,65,2926
66283,Medicare,67,9758
66412,Medicare,67,43710.5
66430,Private,63,1063
66474,Medicare,69,65893
66546,Medicare,81,479
66557,Private,61,23335
66566,Medicare,33,4283
66571,Private,66,29871
66580,Private,58,10688
66597,Medicare,69,7381
66683,Private,22,3086
66706,Medicare,28,4802.166666666667
66774,Private,41,920
66804,Private,54,2650
66835,Medicare,31,5187
66919,Medicare,76,25752
66930,Private,24,712
66957,Private,52,17145
66959,Private,40,17303
67005,Private,47,3949
67017,Private,24,5207
67019,Private,18,5915
67032,Medicare,77,21444
67051,Private,51,8982
67101,Medicare,55,7850
67134,Medicare,52,4821
67144,Medicare,54,19766
67150,Private,22,8791
67216,Medicare,86,7063
67239,Private,34,48561
67377,Medicare,67,8574
67390,Medicare,59,6248
67408,Private,60,18349
67474,Private,55,15099
67533,Private,23,44269
67568,Medicare,85,12592
67635,Private,60,6443
67651,Private,28,56547
67687,Private,66,4478
67724,Private,57,11003
67739,Private,32,8362
67740,Private,58,6794
67808,Private,66,9963
67814,Private,55,5629
67821,Private,61,1736
67877,Medicare,54,10098
67902,Private,33,11507
67917,Private,60,12731
67922,Private,48,3675
67984,Private,53,7541
68010,Private,56,155
68094,Private,56,8497
68235,Private,53,24583
68272,Private,31,3782
68285,Medicare,57,4202
68299,Medicare,65,10170
68308,Medicare,55,6514
68363,Private,53,1738
68396,Private,51,11051
68402,Medicare,69,11799
68425,Private,58,13017
68426,Private,43,15121
68505,Medicare,68,9801
68579,Private,64,66560
68621,Private,62,3954
68635,Medicare,67,27910
68654,Private,50,4710
68664,Medicare,64,8005
68753,Medicare,66,3240
68764,Private,49,9514.3333333333339
68796,Private,50,19975
68836,Private,46,7201
68849,Private,37,13604
68857,Private,61,21381
68894,Private,24,20918
68907,Private,58,13116
68923,Private,50,21364
68929,Private,56,9721
68947,Private,47,12839
68989,Private,52,10386
69024,Medicare,68,10268
69047,Private,58,19639
69082,Medicare,73,17234
69169,Private,42,24426
69208,Medicare,45,8679
69233,Private,65,1137
69248,Private,51,6430
69257,Medicare,76,16976
69265,Medicare,71,6969
69268,Private,47,9462
69299,Private,62,6243
69341,Medicare,70,6503
69354,Medicare,53,21679
69395,Medicare,43,13875
69396,Private,24,3110
69411,Private,60,29115
69435,Medicare,68,11442
69448,Medicare,72,5699
69567,Private,59,3552
69591,Medicare,88,15353
69596,Private,58,30649
69649,Private,46,22470
69654,Medicare,73,3057
69764,Medicare,51,17024
69789,Private,51,39937
69806,Medicare,38,10674.5
69891,Private,48,2741
69895,Medicare,50,23130
69898,Medicare,49,2538
69908,Private,50,7166
69943,Private,43,9202
69995,Medicare,51,15244
70069,Medicare,38,37197
70099,Private,66,5542
70108,Private,61,15738
70115,Medicare,69,8191
70119,Private,45,6364
70150,Medicare,83,7441
70198,Medicare,39,3737
70234,Private,44,5298
70252,Medicare,59,3852
70304,Private,43,38382
70323,Medicare,86,5587
70340,Medicare,51,8746
70396,Medicare,75,15284
70420,Private,64,16991
70478,Private,51,8009
70485,Private,45,44629
70534,Medicare,55,4147
70558,Medicare,22,13153.333333333334
70563,Medicare,51,11266
70576,Private,63,8309
70609,Medicare,85,11727
70617,Private,30,18439
70651,Medicare,27,14306
70705,Medicare,68,7244
70776,Medicare,72,14125
70886,Medicare,72,6076
70929,Private,42,14564
71059,Private,53,64898
71067,Private,46,8079
71145,Medicare,69,5373
71174,Medicare,74,9645
71175,Medicare,67,7401
71184,Private,50,3017.3333333333335
71215,Medicare,64,8265
71287,Medicare,73,4744
71328,Medicare,70,7098
71330,Private,18,7965
71381,Private,43,7549
71397,Medicare,58,17130
71405,Medicare,66,8898
71461,Medicare,74,38541
71464,Private,61,13333
71645,Private,59,50545
71683,Private,56,2544
71722,Medicare,79,12823
71728,Medicare,71,6941
71848,Private,43,36776
71951,Medicare,70,11080
72031,Private,22,6585
72033,Medicare,65,15409
72045,Medicare,88,12414
72048,Medicare,76,10857
72083,Medicare,68,8504.3333333333339
72113,Medicare,66,8641.5
72151,Medicare,80,38851
72172,Medicare,40,777
72197,Medicare,77,26715
72207,Medicare,51,12988
72230,Medicare,86,14261
72273,Private,60,8739
72419,Medicare,47,1990
72455,Medicare,52,34446
72467,Medicare,76,13039
72482,Private,51,19629.5
72639,Medicare,69,9180
72697,Private,57,12870
72725,Medicare,76,6986
72763,Private,50,10145
72836,Medicare,78,6294
72847,Private,63,5162.333333333333
72940,Medicare,68,6792
72979,Private,63,7580
73012,Private,26,5528
73090,Medicare,88,7001
73110,Private,30,7631
73124,Private,61,8788
73125,Private,47,13819
73223,Medicare,71,22438
73231,Medicare,56,5373
73243,Private,37,11143
73299,Private,55,4665
73397,Medicare,66,12341
73425,Private,26,6602
73454,Medicare,58,10825
73504,Private,31,6612
73526,Private,56,7575
73575,Medicare,78,16750
73612,Medicare,73,6292
73682,Medicare,74,39813
73684,Private,65,20139
73695,Private,44,87599
73713,Private,50,4355
73819,Private,58,19135
73834,Medicare,56,4368
73837,Private,46,13038
73867,Private,60,33328
73874,Private,29,1504
73899,Private,25,8998
73958,Medicare,67,902
73967,Private,68,4627
74022,Medicare,68,9859
74034,Private,53,9954
74092,Medicare,86,10135
74160,Private,59,11875
74174,Medicare,51,8790
74230,Medicare,77,18107
74269,Private,57,6251
74278,Private,51,2412
74372,Private,47,9997
74404,Medicare,74,15394
74406,Medicare,76,7260
74448,Private,57,13307
74456,Private,58,5779.333333333333
74459,Private,64,2331
74486,Private,56,14750
74504,Private,45,16644.5
74514,Medicare,56,10761
74535,Medicare,78,3828
74586,Private,53,14670
74591,Medicare,86,4478
74677,Private,61,11666
74683,Private,61,10194
74693,Private,55,28558
74701,Medicare,46,47415
74733,Private,64,8843
74764,Medicare,64,14499
74823,Medicare,40,19668
74954,Private,25,12140
74967,Private,63,17371
74975,Medicare,76,12504
74998,Medicare,51,21364
75034,Medicare,76,21369
75039,Private,48,42789
75071,Medicare,72,10330
75101,Medicare,65,20098
75155,Medicare,69,16110
75223,Private,63,3554
75323,Medicare,47,4477
75343,Private,20,2775
75369,Private,49,29597
75431,Private,58,6110
75438,Medicare,60,21093
75507,Medicare,71,27258
75517,Private,59,11234
75525,Private,51,5522
75544,Medicare,66,6158
75632,Private,22,16979
75664,Medicare,79,19429
75666,Private,54,18699
75677,Private,55,5086
75715,Private,66,4289
75785,Medicare,52,7196
75795,Private,39,4159
75798,Private,48,30523
75806,Private,50,4010
75828,Private,54,16864
75830,Medicare,52,629.5
75889,Medicare,70,8182
75950,Medicare,69,8809
76028,Medicare,75,2668
76042,Private,36,12561
76084,Medicare,62,22807
76116,Private,63,5994
76237,Private,55,57788
76262,Private,21,11079
76265,Private,52,23052
76318,Private,47,15107
76332,Private,50,9955
76338,Medicare,81,5194
76359,Private,66,6716
76386,Private,58,9111
76392,Medicare,51,6988
76439,Medicare,86,20063
76450,Private,59,4401
76477,Medicare,65,2685
76502,Private,50,4773
76542,Medicare,61,4173
76575,Medicare,75,2607
76598,Medicare,57,7318
76601,Private,53,19906
76612,Private,64,16180
76639,Private,63,8188
76683,Medicare,69,17640
76803,Medicare,70,8284.5
76820,Medicare,81,10105
76845,Private,19,770
76865,Private,52,9891
76867,Medicare,64,8466
76874,Private,37,4120
76886,Medicare,74,5502
77052,Private,65,14004
77067,Private,43,25407.285714285717
77094,Private,47,1891
77138,Medicare,40,18721
77220,Private,56,25444
77242,Medicare,55,4575
77308,Medicare,67,5937
77341,Private,58,2540
77436,Medicare,59,14271
77480,Medicare,64,22743
77553,Private,46,7468
77609,Private,19,10015
77630,Medicare,71,16112
77660,Private,62,15521.5
77678,Private,21,2601
77696,Private,53,3243
77771,Private,47,12612
77836,Private,28,30249
77842,Medicare,51,47335
77847,Private,38,3233
77850,Medicare,35,3423
78046,Medicare,43,1530
78063,Private,18,7109
78216,Private,54,28831
78229,Private,64,4686
78290,Medicare,53,2492
78293,Medicare,68,11212
78325,Private,51,18820
78342,Medicare,50,42765.5
78373,Medicare,79,21195
78390,Medicare,67,700
78416,Medicare,60,30037
78419,Medicare,59,12392.5
78476,Medicare,69,24264
78616,Medicare,54,3861
78679,Private,39,16792
78701,Medicare,66,47366
78705,Medicare,74,11615
78828,Private,56,4107
78840,Private,49,13636
78876,Private,26,53667
78911,Private,43,9405
78968,Medicare,27,9489
78987,Private,31,1041
79002,Medicare,68,18990
79015,Medicare,37,5676
79166,Private,19,4982
79188,Medicare,69,16912
79229,Medicare,79,4060
79262,Medicare,81,7698
79272,Private,42,11339
79348,Medicare,52,11551.4
79355,Medicare,60,6088
79358,Private,60,30372
79364,Medicare,47,4702
79392,Medicare,67,28424
79426,Medicare,59,4596
79452,Medicare,56,7093
79461,Medicare,75,7425
79477,Private,50,3376
79538,Private,23,11981
79578,Private,39,21223
79586,Medicare,65,20437
79594,Private,64,16678
79619,Private,58,11621
79625,Private,63,9702
79678,Private,62,379
79746,Private,50,5825
79754,Private,48,15392
79795,Medicare,45,17595
79838,Private,61,38997
79851,Medicare,53,15576
79915,Private,48,45619
79922,Medicare,52,24513
79977,Medicare,40,1789
79996,Private,50,2122.5
80041,Medicare,46,4154
80053,Private,49,10107
80112,Medicare,71,15627
80144,Private,24,7964
80181,Medicare,78,3102
80218,Medicare,69,18758
80260,Private,44,5667
80286,Private,61,5739
80317,Private,54,11497
80335,Private,53,7040
80411,Medicare,57,7842
80442,Private,56,5123
80482,Medicare,62,16929
80501,Private,61,4018
80534,Medicare,57,9719
80555,Private,40,11207
80559,Medicare,48,8227
80602,Medicare,72,21234
80632,Private,60,12122
80670,Private,53,7783
80678,Medicare,61,6855
80688,Private,23,4910
80737,Medicare,53,27005
80742,Private,57,12750
80799,Private,52,31459
80803,Private,36,17997
80830,Medicare,24,12456
80895,Private,49,14384
80935,Private,62,4267
80962,Medicare,74,3566
80985,Private,25,8697
81010,Private,63,11203
81041,Private,51,6174
81069,Private,68,10384
81099,Private,72,10115
81141,Medicare,52,2675
81157,Medicare,68,19420
81193,Medicare,44,17263
81202,Private,31,22790.666666666664
81215,Private,74,14460
81371,Private,64,7012
81387,Medicare,73,11569
81431,Private,60,12015
81443,Private,54,5422
81449,Medicare,83,11968
81464,Medicare,27,9275.5
81556,Private,46,18441
81583,Private,63,13276
81630,Private,64,9135
81662,Private,46,13594.5
81721,Private,68,3960
81723,Medicare,67,2996
81728,Private,51,58033
81737,Private,21,31295
81775,Private,60,5914
81778,Medicare,78,10485
81797,Private,37,7307
81815,Medicare,63,10303
81818,Medicare,75,2747
81825,Medicare,69,44830
81827,Medicare,71,6782
81846,Private,37,8874
81850,Medicare,43,10129
81871,Medicare,81,7779
81883,Private,61,7444
81886,Private,61,8517
81927,Medicare,78,11237
81933,Medicare,44,3470
81980,Medicare,75,18952
82010,Private,53,22080
82040,Medicare,74,5795
82041,Private,57,12701
82068,Private,55,10074
82154,Medicare,42,19029
82279,Private,65,18607
82399,Medicare,67,5512
82432,Private,64,20479
82433,Medicare,67,64976
82434,Private,56,29567
82436,Medicare,78,15631
82463,Medicare,27,1659
82514,Medicare,53,8760
82541,Private,58,10949
82563,Medicare,53,17475
82579,Private,64,3040
82594,Medicare,67,57291
82598,Private,40,11473
82646,Private,56,7639
82685,Private,62,24440
82697,Private,23,3604
82722,Medicare,80,884
82754,Private,29,2271
82759,Medicare,65,9539
82810,Private,54,24059.666666666668
82815,Private,61,4462
82831,Medicare,71,28575
82881,Medicare,36,11765
82894,Private,55,7465
82929,Private,22,16562
83004,Private,38,2687
83034,Private,25,9501
83060,Medicare,55,5343
83079,Private,69,9046.5
83095,Private,27,609
83122,Private,71,11613
83143,Private,59,8472
83156,Medicare,39,5594
83169,Private,62,8636
83210,Medicare,69,8372.5
83260,Medicare,79,7365
83284,Medicare,87,8559
83357,Medicare,74,7567
83375,Private,34,13525
83469,Private,58,8655
83496,Medicare,65,11890
83524,Medicare,69,12090
83550,Medicare,72,7516
83640,Medicare,83,7625
83682,Private,20,10970
83692,Private,58,8109
83751,Medicare,67,13239.5
83782,Medicare,77,4652
83785,Medicare,52,9941
83793,Medicare,74,25404
83794,Private,68,2616
83924,Medicare,63,18445
83963,Private,51,12532
83975,Medicare,66,74319
83981,Private,45,15599
84011,Medicare,66,19255
84039,Medicare,85,10952
84046,Medicare,50,4318
84071,Medicare,62,8770
84116,Private,49,10560
84117,Private,35,11139
84130,Private,58,30575
84186,Medicare,41,4079
84276,Medicare,67,4044
84378,Private,60,29686
84382,Private,42,15514
84424,Private,60,2388
84433,Private,61,8278
84516,Private,58,6837
84531,Private,62,12735
84585,Medicare,84,23917
84627,Private,45,5418
84633,Medicare,67,38323
84681,Medicare,75,9714
84717,Medicare,77,2830
84740,Medicare,49,4292
84764,Private,63,12639
84890,Private,57,16683
84914,Medicare,64,14754
84965,Private,49,4606
84970,Medicare,64,5302
84972,Medicare,55,5275
84979,Medicare,55,15558
84981,Medicare,73,6075
85023,Private,64,59942
85050,Medicare,77,7217
85095,Medicare,74,22258
85124,Medicare,71,7416
85138,Medicare,49,12611
85266,Private,64,7499
85286,Medicare,82,4241
85308,Medicare,77,9929
85327,Medicare,54,14838
85350,Medicare,66,5126
85368,Medicare,87,4361
85401,Private,36,104039
85402,Medicare,69,15151
85490,Medicare,60,9259
85504,Private,57,12775
85516,Private,48,10996
85572,Medicare,54,13567
85627,Private,63,26981
85637,Private,54,11206
85639,Medicare,49,76565
85658,Medicare,85,7365
85689,Private,25,5230
85698,Medicare,64,10425
85720,Medicare,47,1954
85747,Medicare,86,6768
85892,Private,57,13771
85986,Private,51,12593
85987,Medicare,49,18766
86036,Private,61,27298
86086,Medicare,84,11544
86148,Medicare,56,6833
86224,Private,50,1800
86228,Medicare,80,11458
86254,Private,45,12748
86297,Private,65,3211
86383,Private,48,5872
86404,Private,47,3578
86485,Private,48,18477
86583,Medicare,70,4165
86601,Private,50,1387
86611,Medicare,59,18215
86621,Medicare,48,9387
86678,Medicare,70,12923
86705,Medicare,73,4388
86712,Medicare,78,11419
86717,Medicare,82,12856
86719,Private,64,5550
86723,Medicare,35,5419
86903,Medicare,59,974
87008,Private,25,23483
87018,Private,60,1650
87024,Medicare,55,1599
87111,Medicare,42,6413
87172,Medicare,70,7406
87225,Medicare,63,16300
87279,Medicare,44,19747
87331,Private,53,12052
87335,Private,43,5485
87348,Medicare,43,17089.666666666668
87365,Private,29,2706
87375,Private,44,9688
87428,Private,63,4463
87498,Private,64,9172
87518,Private,41,11006
87607,Private,62,6204
87642,Private,51,4307
87675,Medicare,64,130972
87711,Medicare,50,4412
87716,Private,52,7695
87743,Medicare,66,43281
87858,Private,24,7454
87869,Medicare,42,22778
87926,Medicare,71,12503.5
87931,Private,43,7470
87948,Medicare,56,13256
87990,Private,64,9850
87994,Private,32,25155
88018,Private,59,4520
88025,Private,56,3814
88078,Medicare,81,34936
88079,Medicare,82,7903
88099,Private,24,11494
88157,Medicare,52,11496
88175,Medicare,41,2579
88187,Private,31,4112
88191,Medicare,79,10764
88196,Private,60,8650
88211,Private,54,13337
88214,Private,42,6116
88234,Medicare,54,2841
88254,Medicare,70,5105
88265,Private,63,18703
88276,Medicare,36,407
88386,Private,53,1500
88441,Medicare,66,5513
88471,Private,54,16802
88510,Medicare,67,6256
88529,Private,61,11016
88532,Medicare,52,16077
88552,Medicare,72,33199
88591,Private,64,5447
88595,Medicare,69,14356
88602,Private,21,12539
88606,Medicare,66,12871
88608,Private,21,464
88610,Private,63,7580
88655,Private,75,6333
88665,Private,22,9944
88740,Medicare,64,28196
88790,Medicare,59,39552
88801,Private,61,12138
88805,Medicare,70,4378
88819,Private,46,2798
88844,Private,45,15472
88866,Medicare,66,6983
88904,Medicare,46,8302
88953,Private,43,85877
88957,Private,60,4482
89002,Private,41,30321
89037,Private,67,1462
89046,Medicare,89,5627
89065,Medicare,84,3801
89079,Private,69,5370
89092,Private,37,6560
89103,Medicare,75,24261
89107,Private,31,14605
89112,Medicare,80,6827
89126,Medicare,44,12103
89157,Private,51,8768
89176,Private,66,30625
89223,Medicare,73,18914
89316,Private,33,4530
89332,Private,59,5891
89336,Medicare,77,7126
89498,Medicare,77,1680
89528,Private,64,57361
89555,Private,53,12141
89563,Medicare,70,10440
89645,Private,60,35735
89721,Medicare,57,2962
89768,Medicare,75,12571
89807,Private,61,28599
89854,Medicare,83,6605
89929,Private,50,5812
90032,Private,62,9357
90111,Medicare,79,7535
90115,Private,32,25263
90302,Medicare,59,3210
90335,Private,65,2717
90398,Medicare,79,13611
90418,Private,38,22496
90450,Medicare,73,5742
90455,Medicare,57,16756
90460,Private,64,3607.5
90637,Medicare,24,2748
90666,Private,20,5799
90708,Medicare,78,3807
90729,Medicare,63,18594
90746,Private,46,9882
90800,Private,52,5129
90843,Medicare,57,21129
90848,Medicare,74,8685
90881,Medicare,77,5305
90890,Private,56,18570
90903,Private,57,22912
90910,Medicare,58,34626
91062,Private,48,31177
91092,Medicare,45,3034
91101,Private,26,17048
91136,Private,60,4920
91217,Medicare,61,2330
91234,Medicare,48,4326
91323,Private,60,4067
91324,Private,54,8541
91460,Private,38,15170
91465,Medicare,47,3919.25
91477,Medicare,76,5465
91478,Private,22,2898
91491,Medicare,72,4670
91529,Medicare,73,27057
91531,Medicare,60,5692
91554,Private,47,3774
91596,Private,66,8388
91711,Medicare,71,26130
91738,Private,70,2439
91790,Medicare,76,11568
91798,Private,41,15520
91841,Medicare,52,10392
91907,Private,58,11914
91946,Medicare,70,39490
91975,Medicare,31,16077
92001,Private,21,-168
92027,Private,52,1665
92057,Medicare,55,5440
92066,Private,61,4555
92097,Medicare,44,5514
92202,Private,35,4279
92415,Medicare,71,20523
92446,Medicare,73,5671
92452,Medicare,71,14956
92464,Medicare,57,81816
92554,Medicare,70,16757
92580,Medicare,75,26557
92650,Medicare,61,16872
92685,Private,30,19508
92698,Medicare,74,10090
92725,Private,21,3471
92764,Medicare,68,47735
92777,Medicare,75,22593
92816,Medicare,50,9608
92843,Private,56,17622
92872,Private,31,837
92923,Private,19,5282
92941,Private,49,7654
92943,Private,28,2948
92985,Private,59,6666
93052,Medicare,45,4055
93089,Medicare,57,3299
93104,Private,28,8294
93194,Medicare,42,3965
93203,Medicare,38,9116.6666666666661
93219,Medicare,67,1568
93325,Private,57,18113
93378,Private,61,11659
93387,Medicare,80,26657
93410,Private,50,3538
93467,Private,56,1694
93472,Private,48,6796
93505,Private,56,9089
93515,Medicare,84,1729
93565,Private,57,2994
93595,Medicare,75,3922.666666666667
93601,Medicare,67,10313
93623,Private,63,5839
93628,Medicare,77,13200
93634,Private,32,16752
93648,Medicare,67,24676.666666666668
93722,Medicare,66,9107
93800,Private,46,36316
93842,Medicare,77,1255
93847,Private,71,5608
94030,Medicare,87,5472
94049,Medicare,68,2933
94091,Medicare,75,5898.5
94123,Private,56,6507
94150,Medicare,67,23084
94164,Medicare,67,70094
94197,Private,37,13147
94206,Medicare,77,6659
94221,Medicare,88,9765
94319,Private,62,15902
94385,Private,40,9954
94448,Medicare,75,10175
94481,Private,50,9788
94546,Private,61,5636
94561,Private,61,6054
94582,Private,62,9443
94592,Private,71,11897
94610,Private,27,2590
94636,Medicare,62,52733
94665,Medicare,52,6877
94685,Private,53,11128
94762,Medicare,66,17321
94765,Private,53,12756
94821,Medicare,48,6213
94864,Private,54,18451
94937,Medicare,68,39090
94953,Private,53,1773
94961,Medicare,80,9150
94962,Private,64,17373
95004,Medicare,43,9155
95026,Medicare,43,11497
95031,Medicare,55,4571
95036,Private,54,18318
95058,Medicare,31,27372
95115,Private,50,5133
95129,Private,69,12668
95177,Private,56,5146
95200,Medicare,58,14151
95204,Private,38,1562
95218,Medicare,83,6955
95323,Private,56,18723
95340,Private,70,4543
95384,Medicare,67,11713
95404,Private,37,44290
95424,Medicare,65,11278
95426,Medicare,66,7261
95456,Private,60,3180
95659,Private,67,8287
95705,Medicare,73,53333
95760,Medicare,65,5602
95772,Medicare,70,6739
95823,Private,63,8675
95855,Private,53,8561
95864,Medicare,69,3862
95893,Private,67,11648
95895,Medicare,27,5951
95909,Private,55,22552
95925,Medicare,41,345
96046,Medicare,78,5668
96048,Medicare,46,14559
96126,Private,21,13920
96148,Private,68,7748
96229,Private,61,1108
96254,Medicare,56,361
96371,Medicare,78,7273
96374,Private,59,6735
96388,Private,52,10283
96436,Private,21,881
96463,Private,25,982
96533,Medicare,79,20018
96575,Private,55,6220
96577,Private,51,15687
96625,Private,34,22142
96666,Medicare,76,6899
96712,Medicare,58,26819
96746,Medicare,76,16606
96759,Medicare,67,11884
96774,Private,52,1917
96791,Medicare,71,1175
96833,Medicare,49,26111
96863,Private,56,8309
96913,Private,57,29673
96928,Medicare,65,6064
96950,Medicare,83,4901.5
96959,Medicare,48,3179
96975,Medicare,65,18795
96977,Private,59,32708
97002,Private,20,4646
97061,Medicare,66,15359
97069,Private,50,5516
97158,Private,61,55644
97266,Medicare,71,4141
97308,Medicare,73,4708
97346,Private,51,2819
97407,Private,21,3251
97417,Private,52,4399
97418,Medicare,77,25968
97421,Medicare,55,13948.5
97441,Medicare,52,7691.909090909091
97488,Medicare,67,9239
97518,Private,61,19928
97525,Medicare,45,6581
97569,Private,58,12154.5
97577,Medicare,53,1920
97598,Private,55,30154
97652,Medicare,46,34725
97660,Private,60,11531
97664,Private,27,14962
97666,Medicare,50,11237
97728,Private,42,9739
97733,Private,25,18224
97747,Private,56,13205
97783,Medicare,69,23955
97808,Medicare,75,11910
97848,Medicare,83,11749
97849,Private,66,9786
97850,Medicare,73,10725
97922,Private,32,1427
97974,Medicare,37,10569
97982,Private,71,6814
98024,Private,37,6628.5
98070,Private,51,11037
98169,Medicare,68,22559
98177,Private,21,5004
98208,Medicare,66,4174
98209,Medicare,56,10124
98229,Medicare,45,16095
98276,Private,53,22321.5
98280,Medicare,79,36850
98299,Medicare,84,6751
98413,Private,68,11203
98416,Medicare,48,2961
98466,Private,55,3453
98574,Private,57,7870
98593,Private,62,20748.5
98615,Private,21,613
98623,Medicare,45,7017
98640,Private,30,1629
98644,Medicare,49,28884
98664,Private,69,25698
98665,Private,62,12878
98669,Medicare,75,9771
98717,Private,34,9730
98813,Private,60,59682
98814,Private,63,17351
98831,Medicare,66,38922
98833,Private,38,6236
98834,Private,48,6575
98878,Medicare,86,21285
98919,Private,34,5299
98930,Private,63,17649
98941,Medicare,75,8662
99008,Medicare,67,14245
99100,Private,21,4757
99171,Private,52,1020
99205,Private,48,18559
99287,Private,47,33902
99356,Private,71,14087
99379,Private,51,824
99408,Private,54,21975
99444,Private,38,9887
99503,Medicare,74,6684
99517,Private,58,5670
99528,Private,46,4251
99538,Medicare,73,18589
99539,Private,68,9033
99564,Private,63,28938
99589,Private,48,6921
99598,Private,17,19564
99616,Private,63,18211
99645,Medicare,79,10540
99659,Medicare,32,12385
99661,Medicare,43,5240
99776,Private,56,22326
99781,Medicare,72,9154
99790,Medicare,65,9809
99791,Medicare,61,9140
99796,Medicare,63,10563
99802,Medicare,70,8570
99865,Medicare,77,28171
99903,Private,51,5773
