subject_id,insurance,first_admit_age,average_wait_time_admit_to_discharge
21,Medicare,88,11838
52,Private,39,13798
188,Private,52,60782
252,Private,55,33756
292,Private,57,1276
357,Private,62,61032
441,Private,41,116648
480,Private,49,16091
495,Medicare,77,12624
634,Private,63,80292.5
736,Medicare,35,11078
750,Private,36,12521
773,Private,57,17292.666666666668
914,Medicare,49,41255
984,Medicare,69,30020
1148,Private,59,8357
1284,Medicare,36,20378
1357,Medicare,71,10680
1380,Private,64,60035
1386,Private,54,37972.333333333336
1457,Medicare,43,4270
1470,Private,39,44674
1494,Medicare,47,18581
1569,Medicare,70,23193.857142857141
1571,Medicare,68,6611
1769,Medicare,83,12302
1798,Private,59,32600
1967,Private,59,18511
1987,Medicare,46,19679
1995,Medicare,73,16983
2034,Private,61,2963
2195,Private,57,23579
2245,Private,55,26914.5
2264,Private,50,17328
2268,Medicare,77,15888
2324,Medicare,69,9912
2365,Medicare,48,22222.666666666664
2401,Private,35,41718
2403,Medicare,80,85044
2478,Private,56,17897
2486,Private,57,8725.5
2554,Private,52,5618
2683,Private,45,41919
2779,Private,53,29616
2805,Medicare,66,8328
2817,Private,72,15197
2953,Medicare,41,29947
3013,Medicare,67,25130
3026,Private,43,27741
3052,Private,43,45950
3078,Private,45,12823
3127,Medicare,52,8016.5
3133,Medicare,42,45564.5
3196,Medicare,65,14765
3300,Private,65,35775
3460,Private,62,5548
3474,Private,45,12184
3588,Medicare,84,24377
3632,Medicare,68,30929
3673,Medicare,72,3004
3705,Medicare,62,13165.666666666668
3790,Medicare,65,14906
3888,Private,42,55596
3939,Medicare,69,7830
3947,Private,55,11051
4187,Private,44,16297
4271,Private,43,17956.5
4398,Medicare,53,32618
4405,Medicare,51,975
4465,Private,47,14712
4596,Medicare,53,1157
4633,Private,67,12672
4670,Medicare,71,29427
4732,Private,52,11416
4741,Medicare,47,17230
4760,Medicare,69,60005
4894,Private,48,104652
4962,Medicare,56,12941.666666666668
4979,Private,72,24453
5046,Private,51,5059
5056,Private,40,28471
5090,Private,50,54255
5197,Medicare,55,46042
5231,Private,72,16927
5251,Medicare,67,26819
5382,Private,46,20690.75
5400,Medicare,58,9800.5
5442,Private,45,6711
5450,Private,79,8345
5458,Medicare,77,12728
5486,Private,57,43495
5557,Private,53,25756
5561,Private,46,22900.333333333336
5662,Medicare,79,17685
5666,Medicare,75,4289
5691,Medicare,78,12830
5791,Private,46,3255
5801,Medicare,47,21539
5830,Private,56,18805
5909,Medicare,57,12937
5948,Private,53,14410
6153,Private,50,3891
6187,Medicare,48,6221
6205,Medicare,67,15484
6252,Medicare,51,15324
6381,Private,46,69338
6505,Private,75,13025
6552,Private,42,7510
6606,Medicare,44,22578
6676,Medicare,69,11310
6732,Private,17,10618
6804,Private,49,26159
6838,Private,51,30892.5
6863,Medicare,69,12885.666666666668
6873,Private,58,83209
6922,Private,59,44516
7050,Private,48,58036
7095,Medicare,78,2854
7144,Private,52,9578
7209,Private,52,18221
7260,Medicare,70,13931.75
7281,Private,47,12092
7339,Medicare,66,6880
7354,Medicare,39,202917
7514,Private,47,25239.25
7650,Medicare,44,9953
7698,Medicare,66,6512
7758,Medicare,56,10297
7761,Private,50,37879
7784,Medicare,70,16121.5
7787,Medicare,79,11158
7908,Private,46,8436.5
7930,Private,60,20967.666666666664
8028,Medicare,46,3777
8060,Private,49,35922
8068,Private,44,5192
8081,Medicare,74,9924
8145,Private,56,24991
8273,Private,59,16451.333333333332
8482,Medicare,89,20083
8674,Private,49,7335
8745,Private,58,6911
8876,Medicare,71,50568
8904,Medicare,50,28789
8915,Medicare,56,39343
9021,Private,55,63102
9096,Private,56,19371
9128,Private,47,101446
9152,Private,62,10080
9249,Medicare,70,24086
9278,Private,47,9895.6666666666679
9296,Private,57,3957
9300,Private,62,2347
9356,Medicare,54,15257
9364,Medicare,53,17435
9402,Medicare,72,22207
9472,Medicare,78,84476
9580,Medicare,70,27006
9661,Private,56,37665
9763,Medicare,69,31325
9812,Private,47,11981
9871,Medicare,76,5140
10019,Medicare,49,917
10059,Medicare,69,9429
10144,Private,57,14081.333333333334
10220,Medicare,69,21298
10262,Private,49,4693
10281,Private,63,14213
10311,Private,70,2162
10388,Medicare,68,9520
10414,Private,61,13778
10422,Medicare,67,38613
10442,Private,53,37827
10469,Medicare,68,35757
10531,Private,62,27212.333333333332
10567,Private,49,27370
10612,Private,68,16871
10633,Medicare,68,26880
10679,Private,51,29768
10884,Private,57,30133
10939,Private,52,64546
10947,Medicare,75,9024.5
10963,Private,54,32832
11008,Private,57,12731
11135,Private,61,63036
11150,Private,25,6968
11228,Medicare,46,12474
11363,Medicare,51,54274
11474,Medicare,58,9267
11477,Private,52,8882
11492,Private,66,11871
11559,Private,57,24047
11563,Private,59,29125
11589,Private,69,33794
11596,Private,52,51434
11614,Private,65,9762
11677,Medicare,75,12804
11819,Medicare,52,14867
11880,Medicare,76,10279
11912,Private,63,9398.5
11952,Private,53,50171
12013,Medicare,51,8406
12198,Medicare,30,26194
12226,Private,54,2288
12246,Medicare,67,24885
12267,Medicare,73,22771.666666666668
12302,Private,61,80354
12330,Private,49,10453
12344,Medicare,74,33447
12412,Private,51,39333.333333333336
12467,Medicare,56,5909
12483,Private,61,49495
12533,Private,62,48689
12539,Private,63,31505
12540,Medicare,67,40620.5
12564,Medicare,48,9000
12704,Medicare,67,31292
12712,Medicare,50,4706
12796,Private,30,28552
12819,Medicare,78,8382
12834,Private,52,28571
12909,Private,47,14615
12984,Medicare,75,14983
13035,Private,62,65183
13207,Medicare,72,19221
13294,Private,52,6737
13301,Medicare,77,11095
13305,Medicare,53,6971.4
13345,Medicare,72,50925
13373,Medicare,50,46123.5
13438,Private,47,27033
13493,Medicare,54,9969
13819,Private,46,11946
13847,Medicare,80,9273
14031,Medicare,66,15838
14098,Private,58,13773
14197,Private,61,13462.5
14207,Medicare,73,802
14315,Medicare,48,12990
14533,Medicare,39,17368
14563,Medicare,71,14660
14641,Medicare,42,13882
14703,Medicare,57,10038
14716,Private,60,13858.666666666666
14813,Private,47,12853
14837,Medicare,66,7295
14853,Medicare,74,8300
14935,Medicare,80,5087
14936,Medicare,77,16634
14945,Private,59,16054
14947,Private,64,22734
14967,Private,48,24714
14975,Medicare,77,6479
14990,Private,60,24316
15083,Medicare,75,14009
15128,Private,56,7166
15150,Private,49,4304
15219,Private,60,32630
15227,Private,59,29940.6
15496,Private,51,13013
15524,Medicare,49,16460
15557,Private,58,32998
15656,Medicare,67,6930
15726,Private,49,9912
15784,Medicare,79,12494.666666666666
15794,Medicare,68,18867
15812,Private,37,173817
15916,Medicare,41,16815
15922,Medicare,45,21155
16119,Private,45,62674
16378,Private,47,10874
16542,Medicare,81,8307
16676,Medicare,70,25343
16684,Medicare,33,11351
16726,Medicare,82,20890.5
16727,Medicare,62,5940
16731,Private,52,7500
16847,Private,41,34231
16856,Medicare,68,19972
16894,Medicare,71,26595
16976,Medicare,62,17220.2
17047,Medicare,28,64297
17139,Medicare,45,8808
17175,Private,51,42759
17231,Medicare,68,6004
17236,Medicare,77,24592
17239,Medicare,65,9054
17670,Private,56,4788
17677,Medicare,57,23069
17727,Private,70,34546
17853,Private,52,25029
17858,Private,26,13614
17875,Private,48,34355
17891,Private,46,87698
17921,Medicare,65,28955
17924,Private,26,30249
17936,Private,47,19487
17983,Medicare,87,20356
18074,Private,52,296
18076,Private,54,25013.5
18087,Medicare,34,5273
18108,Private,48,121032
18113,Private,56,10008.333333333334
18231,Medicare,44,35200
18363,Medicare,74,20896
18373,Private,58,2415
18382,Private,60,1144
18401,Private,52,5087
18402,Private,55,11193
18463,Medicare,63,39422
18468,Private,66,58620
18473,Private,59,10910.25
18510,Private,46,28710
18516,Medicare,60,940
18712,Medicare,59,26489
18791,Private,40,57633
18794,Private,29,11469
18949,Private,60,1436
19031,Private,61,4427
19056,Medicare,60,26551
19061,Private,58,9916
19144,Medicare,54,15820
19164,Private,64,14727
19226,Private,81,14185
19263,Medicare,43,14113
19359,Private,60,10887
19518,Private,69,90650
19536,Private,59,6376
19602,Private,61,4060
19687,Private,63,7575
19771,Private,33,4746
19791,Private,55,17096
19799,Private,52,55400
19811,Medicare,76,5733
20255,Private,62,14321
20327,Medicare,72,36037
20330,Medicare,74,24656
20534,Medicare,52,20371
20542,Medicare,75,8377.3333333333339
20577,Medicare,65,11839
20715,Medicare,75,14165
20790,Private,65,11760
20836,Medicare,71,15191
20865,Private,63,12040
20994,Private,48,12269
21153,Medicare,52,17840
21162,Private,49,22116.5
21178,Private,63,9015
21256,Medicare,54,7523
21274,Medicare,58,19451
21408,Private,38,6798
21460,Private,41,14183.8
21569,Private,69,67577
21575,Private,59,20261
21645,Medicare,81,4348
21666,Medicare,71,14120
21696,Private,55,5837
21773,Medicare,56,30210
21827,Medicare,79,13420
21948,Medicare,59,72268
21967,Medicare,78,65633
21968,Private,73,19267
22007,Medicare,81,8290
22020,Medicare,70,23787.5
22058,Private,62,10565
22130,Private,27,67286
22228,Private,63,23028
22264,Medicare,69,62042
22387,Medicare,69,7561
22566,Medicare,77,7824
22575,Private,47,15130
22646,Medicare,63,17342
22663,Medicare,56,6013
22836,Private,58,20053.5
22844,Private,29,61645
22933,Private,55,38138.285714285717
22963,Medicare,49,13501
22976,Medicare,73,3300
23145,Medicare,68,32878
23149,Medicare,80,1004
23264,Medicare,57,12532
23292,Private,63,15666
23298,Private,47,60368
23317,Private,54,31259
23339,Private,65,11756
23477,Private,49,3998.5
23502,Private,47,14484
23508,Medicare,79,50017
23549,Medicare,74,20851
23637,Medicare,86,4769
23677,Private,54,2056
23744,Medicare,72,28612
23872,Medicare,52,35753
23877,Medicare,81,12803
23990,Medicare,72,32259
24030,Medicare,48,10309
24180,Medicare,79,5938
24344,Medicare,57,5242
24383,Medicare,46,20908
24411,Medicare,82,215
24486,Private,56,74375
24560,Private,50,36730
24682,Private,45,13161
24697,Private,45,15476
24712,Private,42,75031
24743,Private,63,59430
24805,Private,40,2211
24841,Private,47,36562
24912,Private,57,7021
24979,Medicare,70,20050
25140,Medicare,70,19840
25217,Medicare,52,41277.666666666664
25221,Medicare,80,26917
25256,Private,39,25889.285714285714
25351,Medicare,79,7104
25437,Private,50,27379
25475,Private,58,46750
25498,Medicare,47,46946
25551,Private,63,8560
25612,Private,49,9797
25634,Private,48,16418
25696,Medicare,52,65870
25699,Private,38,54479.5
25916,Private,50,13244
26039,Private,52,8930
26142,Medicare,50,3947
26236,Medicare,79,16045
26239,Medicare,52,17420
26267,Medicare,46,10472
26337,Medicare,79,23430
26480,Medicare,56,29479
26491,Private,58,34906
26510,Private,35,12396
26569,Medicare,79,8181
26629,Medicare,60,1188
26648,Medicare,46,20419.333333333332
26682,Private,58,14090
26700,Private,41,93698
26714,Private,67,8220
26734,Private,83,9777
26745,Private,55,17715
26783,Medicare,47,39626
26829,Medicare,82,29386
27022,Private,72,46473
27096,Private,53,2666
27112,Medicare,53,16882
27129,Private,59,7159
27144,Private,63,8529
27171,Medicare,84,11501
27172,Medicare,54,37874
27199,Private,51,14198
27204,Medicare,84,12297
27291,Private,43,18703
27294,Medicare,72,9090
27315,Private,60,100342
27331,Private,67,9419
27390,Medicare,70,19738
27468,Private,56,11390
27471,Medicare,301,4196
27477,Private,53,14173
27493,Private,55,8220
27505,Private,68,58053
27636,Private,59,26476
27655,Medicare,84,12914
27751,Medicare,79,10820
27806,Medicare,57,8652
27807,Medicare,53,10938
27945,Medicare,66,27820
28005,Private,63,23450
28057,Medicare,62,14474
28163,Medicare,72,16931
28178,Medicare,67,16124
28207,Private,61,24851
28345,Private,29,29075
28375,Medicare,74,19892
28403,Medicare,67,11358
28453,Private,41,11151
28462,Private,63,31343
28490,Private,54,51503
28493,Medicare,66,8310
28505,Medicare,58,73237
28516,Medicare,68,7529
28531,Medicare,47,29799
28677,Private,65,18442
28724,Medicare,83,20000
28726,Medicare,69,17001
28732,Private,62,18600
28754,Medicare,70,19828
28808,Private,61,33094
28889,Medicare,68,27332
28911,Medicare,65,4748
28977,Medicare,53,5924
29035,Medicare,63,41125.8
29055,Private,55,7878.5
29056,Private,57,5914
29092,Private,41,5147
29137,Medicare,65,15194.142857142857
29163,Private,63,100217
29317,Medicare,55,14139
29324,Private,45,11404
29353,Private,60,4699
29439,Medicare,70,4119
29485,Medicare,56,60810
29533,Medicare,63,7106
29572,Private,49,60540
29573,Medicare,53,8184
29598,Private,46,7204
29657,Private,43,69930
29722,Private,66,36954
29893,Medicare,79,39376
29909,Medicare,80,23361
29961,Medicare,72,16790
29968,Private,57,51578
29971,Medicare,59,5134
29997,Medicare,70,5749
30026,Private,48,89070
30281,Private,48,29852
30322,Medicare,66,17840
30419,Medicare,67,8645
30437,Private,45,9621
30612,Medicare,64,6581
30659,Medicare,58,53253.333333333336
30730,Private,46,53236
30731,Medicare,65,35949
30779,Private,64,6519
30820,Private,48,4671.5
30829,Private,60,19854
30887,Medicare,55,12016.666666666668
30903,Private,49,29690
30962,Medicare,59,34420
30987,Private,45,3070
31030,Medicare,32,41446
31033,Medicare,64,7018
31203,Medicare,74,20187
31237,Private,65,26576
31294,Medicare,46,104913
31305,Private,58,20048
31341,Private,61,36733
31381,Medicare,62,4314
31491,Medicare,65,35648
31502,Medicare,81,20754
31507,Private,57,6672
31564,Private,46,7176
31615,Medicare,78,5136
31683,Medicare,60,25787
31854,Medicare,70,26230
31856,Medicare,54,40320
31904,Private,67,45530
31928,Medicare,80,12529
31958,Private,58,14206
32122,Medicare,72,14736.333333333334
32125,Medicare,62,58844
32203,Private,34,24503
32283,Medicare,83,6921
32287,Medicare,68,18344
32316,Medicare,36,1546
32420,Medicare,68,12354
32425,Medicare,49,36370
32453,Medicare,43,7311.333333333333
32489,Private,44,5781
32495,Medicare,66,13912
32548,Private,57,5826
32582,Private,60,11327
32624,Private,46,34220
32658,Private,48,30385.333333333332
32712,Medicare,71,13554
40000,Medicare,51,42302.5
40085,Private,34,28496
40094,Private,51,16149.4
40161,Medicare,84,47597
40347,Medicare,65,28355
40351,Medicare,68,29723
40428,Medicare,81,8615
40435,Private,53,13426
40496,Medicare,48,6600
40622,Private,51,13684
40723,Private,41,22657
40738,Medicare,66,24479
40798,Private,65,25056
40833,Private,55,1490
41438,Medicare,78,26610
41565,Private,63,13547
41803,Private,48,29700
41914,Medicare,55,24452
42054,Private,44,19739.5
42141,Private,62,36353
42281,Medicare,68,40532
42288,Private,49,40125
42364,Private,52,2805
42396,Private,48,1231
42474,Private,53,6094
42591,Private,52,10103
42858,Medicare,66,7041.5
42870,Medicare,69,44266
42878,Private,55,1720
42904,Medicare,66,177304
43006,Medicare,79,15307
43086,Private,37,162521
43126,Private,57,243630
43602,Private,60,6026
43969,Private,45,3707
44061,Private,63,7201
44212,Medicare,45,51857
44723,Private,60,5713
44751,Medicare,65,10675.5
44812,Private,62,22829
44979,Private,58,54786
45126,Private,67,1561
45176,Private,62,4171
45292,Medicare,58,5970
45300,Private,61,26075
45315,Medicare,74,6317
45316,Private,57,8181
45425,Medicare,79,21542
45460,Private,57,4128
45524,Medicare,61,5267
46034,Private,42,9324
46230,Private,73,5289
46251,Medicare,31,17416
46538,Medicare,52,15754
46820,Private,63,5825
46968,Private,66,7158
47183,Medicare,68,35711
47295,Private,60,2602
47568,Private,64,865
47614,Medicare,43,22408
47941,Private,58,6783.5
48174,Private,35,30022
48342,Medicare,66,4042
48388,Private,58,21565
48479,Private,27,156162
48527,Private,86,9735
48629,Medicare,69,47908
48657,Medicare,54,2319
48732,Private,46,14375
48974,Medicare,60,22533
49022,Medicare,50,38245
49141,Private,39,26608
49151,Private,64,8035
49508,Medicare,85,7314
49723,Medicare,78,8338
49763,Private,54,9761
49925,Medicare,50,47084.4
50214,Private,21,11462
50231,Medicare,80,6135
50359,Medicare,86,9923
50405,Private,57,34201
50450,Private,50,9914
50486,Medicare,71,1200
50487,Medicare,68,7426
50648,Private,52,14115.5
50651,Private,54,11356
50743,Medicare,76,43479
50757,Medicare,70,21596.5
50822,Private,52,57451.4
50882,Medicare,49,5541
50899,Private,61,11145.5
51078,Private,64,27484.5
51462,Private,58,23180
51506,Private,46,37335
51555,Medicare,45,29292
51735,Medicare,73,23325
52342,Private,48,5536
52411,Medicare,61,1835
52547,Medicare,75,50323.5
52593,Medicare,66,20460
52622,Medicare,69,13638.25
52777,Private,66,6769
52919,Medicare,71,17721
53432,Private,54,1071.5
53492,Medicare,63,30207.333333333332
53738,Private,53,51209
53821,Medicare,54,34773
53862,Private,58,11566
53944,Private,51,48745
54005,Private,62,15756
54043,Medicare,72,34797
54188,Private,62,50171
54193,Medicare,79,13793
54245,Medicare,45,17090
54381,Medicare,59,4748
54586,Medicare,51,66252
54610,Private,60,12402
54689,Medicare,77,4634
54788,Medicare,49,23883
54911,Private,65,42929
55094,Medicare,57,11486
55180,Medicare,56,76390
55337,Private,51,104829
55393,Private,60,11733
55557,Medicare,67,9370
55703,Private,80,8440
55728,Medicare,46,25414
55739,Medicare,46,4316
55921,Medicare,43,170930
56184,Private,48,4755
56225,Medicare,67,5969
56279,Private,66,5467
56287,Private,63,4346
56484,Private,52,16177
56740,Private,61,21122
57010,Private,54,7399
57139,Medicare,59,38092.666666666664
57255,Medicare,67,37396
57306,Medicare,71,76253
57437,Medicare,67,16910
57496,Medicare,51,10798.5
57528,Private,36,5226
57592,Private,68,8450
57858,Private,43,12695
57872,Medicare,42,11721
57981,Private,61,5566
58004,Medicare,70,4381
58008,Medicare,67,40878.333333333336
58010,Private,43,65803
58144,Medicare,66,1491
58247,Medicare,71,34476.2
58249,Medicare,59,9771
58508,Medicare,63,8306
58510,Private,60,22395
58713,Private,54,5858
58851,Medicare,75,9756
58862,Medicare,62,31693
58888,Medicare,76,6815
59067,Private,67,16777
59152,Medicare,71,25415
59222,Medicare,70,40415
59225,Medicare,54,10481
59246,Private,45,7046
59285,Private,57,31800
59301,Private,59,55438
59381,Private,45,31278
59415,Private,59,10179
59437,Private,60,21080
59498,Medicare,80,24338
59726,Medicare,52,80526
59797,Private,46,5482.5
59918,Private,50,25643
59960,Medicare,83,8311.5
60020,Private,51,9167
60104,Medicare,61,30214
60274,Private,44,33389.4
60441,Private,54,29994
60715,Medicare,85,38531
60893,Private,63,80617
60897,Medicare,68,63321
61024,Medicare,87,2586
61111,Private,63,27067
61236,Medicare,77,8354
61606,Medicare,51,44803
61833,Private,52,9200
62141,Medicare,50,4141
62295,Medicare,55,13026
62323,Private,64,4005
62344,Private,63,73430
62594,Medicare,65,2898
62603,Private,46,20817.666666666664
62654,Private,40,10939
62691,Medicare,66,10031
62887,Medicare,65,4423
62926,Medicare,65,21469
63017,Private,58,14428
63053,Private,63,60706.333333333336
63103,Private,52,35726
63116,Medicare,55,19750
63200,Medicare,76,6827
63253,Private,56,59884
63471,Medicare,56,20812
63659,Private,44,12640
63693,Medicare,44,8404
63961,Medicare,67,52767.5
63987,Private,61,17898
64026,Private,67,28616.333333333336
64124,Medicare,63,12598
64136,Private,70,12036
64182,Private,41,10059
64227,Private,45,10383
64277,Private,46,58866
64416,Private,63,50405.666666666664
65002,Private,58,1062
65176,Private,36,74352
65310,Private,35,17099
65312,Medicare,84,34588
65342,Medicare,57,16896
65411,Private,72,48907
65611,Medicare,43,21205
65623,Private,45,11138
65946,Medicare,84,12175
65949,Medicare,52,17536
66095,Private,66,11648.333333333334
66155,Private,56,5759
66165,Medicare,68,5630
66228,Private,59,25363
66307,Private,62,45235.6
66474,Medicare,69,65893
66745,Private,57,86791
66824,Private,71,1465
66959,Private,40,17303
67089,Medicare,54,8327
67239,Private,34,48561
67358,Private,54,22073
67475,Private,57,8849
67536,Medicare,82,7217
67568,Medicare,85,12592
67579,Private,56,19080
67676,Medicare,66,2663
67835,Medicare,68,7176
67853,Medicare,65,7867
67920,Medicare,69,12975
67939,Private,53,8063
68356,Medicare,59,8628
68663,Medicare,45,45980
69047,Private,58,19639
69146,Medicare,81,11262
69158,Medicare,87,16945
69295,Medicare,58,68967
69411,Private,60,29115
69438,Private,48,12870
69943,Private,43,9202
70053,Private,58,4325
70180,Private,61,4885
70206,Medicare,56,14305
70271,Medicare,68,19290
70323,Medicare,86,5587
70393,Medicare,48,36703
70469,Private,56,10234
70478,Private,51,8009
70485,Private,45,44629
70505,Medicare,73,31850
70926,Medicare,55,11612
70954,Medicare,86,50577
71072,Medicare,73,17629
71108,Medicare,63,32615
71206,Medicare,63,9119
71645,Private,59,41594.5
71814,Private,39,58089
72327,Medicare,66,11598
72538,Private,45,61968
72562,Medicare,74,19210
72723,Private,22,11777
73038,Medicare,72,5606
73124,Private,61,8788
73241,Private,64,33423
73299,Private,55,4665
73316,Medicare,57,19503
73499,Medicare,63,13086
73504,Private,31,6612
73558,Private,48,13360
73608,Private,50,8449
73790,Medicare,79,8746
73867,Private,60,33328
73902,Medicare,79,14204
74269,Private,57,6251
74693,Private,54,25533
74701,Medicare,46,47415
75031,Medicare,66,6411
75100,Private,40,42096.6
75142,Medicare,57,31018
75350,Private,51,16029
75403,Medicare,67,5433
75438,Medicare,60,21093
75666,Private,54,22896
75685,Private,51,7248
75785,Medicare,52,7196
75883,Medicare,85,21899
75963,Medicare,65,5898
76042,Private,36,12561
76237,Private,55,57788
76541,Private,46,50430
76568,Private,60,11476
76780,Medicare,75,59322
76873,Private,64,6553
76984,Private,39,364
77053,Private,64,14430
77282,Private,52,23011
77383,Private,45,43813.25
77597,Private,40,38359
77771,Private,47,7944
77816,Private,42,56425
78100,Private,65,11242.5
78155,Private,59,31992
78342,Medicare,50,31750.75
78366,Private,66,14154
78473,Private,51,13009
79084,Private,66,32870
79300,Medicare,56,34173
79308,Private,59,10152
79348,Medicare,52,11669.25
79575,Private,34,24089
79667,Private,62,12929
79877,Medicare,66,10512
79915,Private,48,45619
80030,Private,56,59912
80185,Medicare,73,6561
80260,Private,42,16352.874999999998
80335,Private,53,7040
80369,Medicare,85,5827.5
80536,Private,69,162427
80547,Private,64,16340
80560,Private,47,4660
80645,Private,53,18055
80805,Private,67,37004.4
80861,Private,50,16545
80927,Private,57,109501
80957,Private,62,3898
80985,Private,25,8697
81011,Private,52,5500
81025,Private,43,13445.2
81041,Private,51,5587.333333333333
81283,Medicare,70,11391
81456,Private,55,25141.6
81480,Private,48,125762
81775,Private,60,5914
81846,Private,37,12562
81850,Medicare,42,15233.75
82040,Medicare,74,5795
82100,Medicare,69,13822.5
82184,Private,46,13505
82291,Private,53,20059
82360,Medicare,62,19730
82432,Private,64,20479
82433,Medicare,67,49539
82507,Medicare,83,17895
82599,Medicare,70,70402
82810,Private,54,23261
83088,Medicare,61,2898
83255,Medicare,84,8580
83301,Private,54,9745.5
83310,Private,56,49169
83497,Medicare,67,6938
83498,Private,51,2589
83749,Medicare,69,81783
83808,Private,53,34394
83879,Private,58,12561
83962,Medicare,71,49084
84142,Private,58,54102
84270,Private,62,16896
84382,Private,42,15514
84489,Private,54,25069
84519,Medicare,47,5102
84615,Medicare,75,30813
84881,Medicare,68,59031
84934,Medicare,72,8211
85278,Medicare,83,19907
85327,Medicare,54,18493
85516,Private,48,10996
85639,Medicare,49,33933.8
85655,Private,55,11024
85899,Medicare,54,14184
86036,Private,61,27298
86155,Medicare,69,17985
86176,Medicare,79,2357
86415,Medicare,45,37532
86577,Private,60,13094
86821,Private,70,24484
86948,Medicare,67,24881
87325,Medicare,79,12672
87621,Private,60,7526
87625,Medicare,79,7992
87869,Medicare,42,46738.666666666672
88211,Private,54,13337
88265,Private,63,8342
88395,Medicare,52,5608
88417,Private,60,5112
88573,Private,57,13047
88613,Medicare,59,22589
88731,Private,49,23517
88790,Medicare,59,39552
88832,Medicare,72,5667
88883,Private,81,2781
89303,Private,32,27525
89356,Private,61,48116.2
89577,Private,64,3149
89646,Private,49,1333
90075,Private,43,23155
90115,Private,32,25263
90153,Medicare,46,8207
90165,Private,49,44933
90195,Private,64,6910
90317,Private,57,23420
90396,Medicare,69,2176
90479,Medicare,53,18848
90708,Medicare,78,3807
90886,Private,45,5335
90972,Medicare,80,24091
91031,Medicare,68,141054
91098,Private,37,8348
91368,Private,49,10544
91465,Medicare,47,7523.5
91572,Private,80,19828
91669,Medicare,60,55393.5
91960,Private,59,42636
92410,Medicare,81,10649
92420,Medicare,43,7015
92464,Medicare,57,81816
92800,Medicare,37,16338
92843,Private,55,5283
92916,Private,55,53617
93026,Medicare,66,4039
93031,Private,61,7083
93039,Medicare,58,23363.25
93054,Medicare,50,14036
93077,Medicare,73,25777
93147,Private,49,4402
93325,Private,57,17716
93459,Private,61,10264.666666666666
93564,Medicare,65,8650
94016,Private,51,9070.3333333333339
94166,Medicare,72,37129
94229,Private,71,21522
94252,Medicare,55,1546
94581,Medicare,85,9784
94733,Private,55,15331
94778,Private,23,49099
94817,Medicare,44,391
94846,Private,54,20202
95324,Medicare,82,13899
95380,Private,51,16169.4
95776,Medicare,69,30768
95816,Private,43,4503
95868,Private,64,35845
95909,Private,54,20997.5
95968,Medicare,80,6695
96149,Medicare,68,38626
96218,Private,60,26665.6
96750,Medicare,85,14327
96791,Medicare,71,6509
96833,Medicare,49,26111
96959,Medicare,48,3179
97539,Private,57,10520
97543,Private,64,19473
97547,Medicare,75,21136
97581,Private,65,17396
97781,Private,41,5127
97916,Medicare,83,5412
98220,Medicare,70,31155.666666666668
98402,Medicare,56,4215
98573,Private,64,108430
98899,Medicare,50,12831
98930,Private,63,26355
98944,Private,47,661
99166,Private,59,21091
99197,Private,60,15327
99205,Private,48,18559
99334,Medicare,70,8530
99740,Private,51,22873
99791,Medicare,61,9140
99836,Medicare,52,81907
99923,Private,55,12868.5
